CustomerID,f_quartile,m_quartile,q_quartile,pu_quartile
12346.0,4,1,1,4
12347.0,1,1,2,3
12348.0,4,2,1,1
12349.0,1,1,3,1
12350.0,4,4,2,1
12352.0,2,1,3,1
12353.0,4,4,4,1
12354.0,2,2,3,1
12355.0,4,3,1,1
12356.0,3,1,1,2
12357.0,1,1,1,2
12358.0,3,2,2,1
12359.0,1,1,3,1
12360.0,1,1,3,2
12361.0,4,4,3,2
12362.0,1,1,3,1
12363.0,3,3,1,3
12364.0,1,1,1,4
12365.0,4,3,3,1
12367.0,2,2,1,2
12370.0,2,1,2,3
12371.0,1,1,3,1
12372.0,3,2,1,2
12373.0,4,4,2,1
12374.0,1,1,2,1
12375.0,3,2,2,1
12377.0,3,2,2,3
12378.0,1,1,2,2
12379.0,3,2,2,3
12380.0,1,1,2,2
12381.0,1,1,3,1
12383.0,2,2,1,2
12384.0,3,2,4,1
12386.0,4,4,1,3
12388.0,2,1,2,3
12390.0,2,2,2,1
12391.0,1,1,4,3
12393.0,3,2,2,3
12394.0,3,2,1,2
12395.0,2,1,2,1
12397.0,1,1,2,2
12398.0,1,1,1,4
12399.0,3,2,1,4
12401.0,4,4,4,1
12402.0,4,4,3,2
12403.0,4,2,1,1
12405.0,2,1,1,2
12406.0,1,1,1,3
12407.0,2,2,1,2
12408.0,2,1,2,2
12409.0,1,1,1,2
12410.0,4,3,3,1
12412.0,2,2,2,3
12413.0,3,3,3,1
12414.0,4,3,1,1
12415.0,1,1,1,2
12417.0,1,1,3,1
12418.0,2,2,2,2
12420.0,2,2,2,1
12421.0,3,3,2,1
12422.0,3,3,3,2
12423.0,2,2,2,3
12424.0,3,1,1,3
12425.0,2,2,2,3
12426.0,3,3,3,1
12427.0,4,3,1,1
12428.0,1,1,2,1
12429.0,2,1,1,2
12430.0,3,2,2,1
12431.0,1,1,2,2
12432.0,1,1,1,1
12433.0,1,1,1,4
12434.0,3,3,3,2
12435.0,3,1,1,1
12436.0,3,2,2,1
12437.0,1,1,1,1
12438.0,1,1,2,1
12441.0,4,4,2,2
12442.0,2,2,1,2
12444.0,1,1,3,1
12445.0,4,3,1,1
12446.0,1,1,3,1
12447.0,3,3,3,2
12448.0,2,2,2,1
12449.0,1,1,3,2
12450.0,4,4,1,4
12451.0,1,1,1,3
12452.0,1,1,3,1
12453.0,2,2,2,3
12454.0,3,1,1,1
12455.0,2,1,1,2
12456.0,2,1,2,2
12457.0,2,1,2,1
12458.0,3,3,2,1
12461.0,3,2,3,1
12462.0,3,2,3,1
12463.0,2,2,3,2
12464.0,3,2,4,1
12465.0,2,2,2,3
12468.0,3,3,3,2
12471.0,1,1,1,1
12472.0,1,1,2,3
12473.0,1,1,2,1
12474.0,1,1,2,3
12475.0,2,1,1,2
12476.0,1,1,2,1
12477.0,1,1,2,1
12478.0,1,1,3,1
12479.0,1,1,2,3
12480.0,2,1,2,2
12481.0,1,1,1,2
12483.0,3,2,1,1
12484.0,1,1,3,2
12488.0,1,1,3,2
12489.0,4,4,3,1
12490.0,1,1,2,3
12491.0,2,2,3,2
12492.0,3,3,3,2
12493.0,3,3,3,1
12494.0,3,3,3,1
12497.0,3,1,1,4
12498.0,2,2,3,1
12500.0,3,1,1,1
12501.0,2,2,2,3
12502.0,2,1,4,1
12504.0,3,1,3,1
12506.0,3,4,4,2
12507.0,4,2,1,1
12508.0,1,2,4,4
12509.0,4,4,3,1
12510.0,3,3,2,1
12512.0,2,4,4,3
12513.0,2,2,2,4
12514.0,3,3,3,2
12515.0,4,4,3,1
12516.0,3,2,1,3
12517.0,1,1,4,3
12518.0,1,1,2,3
12519.0,3,2,2,2
12520.0,1,1,3,2
12521.0,2,3,3,2
12522.0,3,3,1,1
12523.0,2,2,3,1
12524.0,2,1,1,3
12526.0,1,1,3,2
12527.0,4,4,2,2
12528.0,2,2,3,1
12530.0,3,2,2,1
12531.0,2,3,4,2
12532.0,2,2,3,2
12534.0,2,2,2,2
12535.0,3,3,3,1
12536.0,1,1,2,1
12538.0,2,2,3,2
12539.0,1,1,3,1
12540.0,1,1,2,1
12541.0,3,3,2,2
12544.0,2,2,3,1
12545.0,3,3,2,1
12546.0,1,1,3,2
12547.0,4,4,1,1
12548.0,4,4,3,1
12550.0,1,1,3,2
12551.0,4,4,3,4
12552.0,2,2,4,1
12553.0,1,1,2,2
12556.0,1,3,4,3
12557.0,3,1,1,4
12558.0,2,1,1,4
12559.0,4,3,2,2
12560.0,1,1,2,3
12561.0,4,4,2,2
12562.0,1,1,2,2
12564.0,4,3,3,1
12565.0,4,4,3,3
12566.0,3,3,2,1
12567.0,1,1,3,2
12569.0,1,1,3,1
12571.0,2,3,1,4
12572.0,1,1,3,1
12573.0,3,4,4,4
12574.0,4,4,4,1
12576.0,2,2,2,3
12577.0,2,3,4,4
12578.0,2,1,2,2
12579.0,2,2,3,2
12580.0,3,4,3,3
12581.0,2,3,2,3
12582.0,4,3,2,1
12583.0,1,1,1,2
12584.0,2,1,4,1
12585.0,2,2,1,2
12586.0,2,2,3,1
12587.0,3,2,2,1
12588.0,3,3,4,1
12589.0,3,2,3,1
12590.0,2,1,1,1
12591.0,4,4,3,2
12592.0,4,3,1,2
12593.0,3,3,3,3
12594.0,2,1,1,2
12596.0,3,3,1,1
12597.0,1,1,2,1
12598.0,2,1,1,3
12599.0,3,3,1,2
12600.0,3,2,2,1
12601.0,4,3,3,1
12602.0,3,3,2,4
12603.0,4,1,1,1
12604.0,4,4,2,3
12607.0,1,1,2,4
12609.0,3,3,2,2
12610.0,1,1,3,1
12611.0,1,1,2,3
12612.0,3,2,2,1
12613.0,1,1,2,3
12614.0,4,4,4,1
12615.0,1,1,2,2
12616.0,3,3,3,2
12617.0,1,2,4,4
12618.0,2,3,3,1
12619.0,2,1,1,1
12620.0,2,2,2,4
12621.0,1,1,1,3
12622.0,4,4,3,1
12623.0,4,4,2,3
12624.0,3,3,3,1
12625.0,2,1,1,4
12626.0,1,1,2,3
12627.0,1,1,2,2
12628.0,1,1,2,2
12630.0,1,1,3,1
12631.0,2,2,3,1
12633.0,2,2,2,2
12635.0,1,1,2,3
12637.0,1,1,3,3
12638.0,1,1,1,3
12639.0,3,3,3,1
12640.0,1,1,4,1
12641.0,4,4,3,1
12642.0,2,2,2,2
12643.0,4,1,1,1
12644.0,3,3,2,3
12645.0,2,2,1,3
12646.0,1,1,1,3
12647.0,2,1,2,1
12648.0,3,3,3,2
12649.0,3,3,1,3
12650.0,1,1,2,4
12651.0,4,4,3,3
12652.0,3,3,2,3
12653.0,3,2,1,3
12654.0,3,3,3,1
12656.0,1,1,2,1
12657.0,2,1,1,1
12658.0,1,1,3,1
12659.0,3,4,1,1
12660.0,2,2,3,1
12662.0,1,1,3,2
12664.0,3,1,1,1
12665.0,4,4,2,1
12667.0,2,2,2,2
12668.0,2,1,2,2
12669.0,2,1,2,1
12670.0,2,1,1,2
12672.0,4,4,3,2
12673.0,3,3,3,2
12674.0,2,1,2,2
12676.0,3,2,1,1
12678.0,2,1,1,1
12679.0,3,2,2,1
12680.0,2,2,3,2
12681.0,1,1,2,2
12682.0,1,1,2,2
12683.0,1,1,2,3
12684.0,2,1,1,3
12685.0,1,1,3,2
12686.0,4,4,1,2
12688.0,1,1,1,1
12689.0,1,1,3,3
12690.0,4,3,3,1
12691.0,3,3,2,1
12693.0,3,3,3,1
12694.0,3,2,2,1
12695.0,3,3,3,1
12697.0,2,2,2,1
12700.0,1,1,2,3
12701.0,3,3,2,2
12702.0,2,2,4,1
12703.0,2,3,3,3
12704.0,1,1,2,1
12705.0,1,1,2,3
12707.0,3,3,3,2
12708.0,2,2,3,1
12709.0,1,1,1,2
12710.0,2,2,2,3
12712.0,2,1,3,1
12713.0,1,1,2,3
12714.0,1,1,2,3
12715.0,3,3,3,2
12716.0,2,2,2,3
12717.0,3,2,3,1
12718.0,3,3,2,3
12719.0,2,2,3,2
12720.0,1,1,2,3
12721.0,2,2,2,2
12722.0,2,2,2,2
12723.0,1,1,3,2
12724.0,3,3,3,2
12725.0,4,4,3,1
12726.0,2,2,1,4
12727.0,2,1,1,2
12728.0,3,3,3,1
12729.0,3,3,3,2
12731.0,1,1,1,2
12732.0,4,4,3,2
12733.0,3,4,3,2
12734.0,4,4,1,4
12735.0,3,3,3,1
12736.0,4,4,1,1
12738.0,4,4,2,1
12739.0,2,1,2,1
12740.0,2,2,2,4
12743.0,1,3,4,2
12744.0,1,1,1,1
12747.0,2,1,2,1
12748.0,1,1,4,3
12749.0,1,1,3,1
12750.0,3,3,3,1
12752.0,1,1,1,3
12753.0,1,1,1,3
12754.0,3,1,1,4
12755.0,4,1,1,1
12756.0,4,4,1,4
12757.0,1,1,3,1
12758.0,2,1,1,4
12759.0,2,2,3,2
12762.0,1,1,1,3
12763.0,4,4,1,4
12764.0,3,2,3,1
12766.0,1,1,2,2
12769.0,3,2,2,1
12770.0,4,2,1,3
12772.0,1,1,2,2
12775.0,3,2,2,1
12778.0,3,3,1,2
12779.0,2,1,2,2
12781.0,4,3,1,2
12782.0,2,2,2,2
12783.0,1,1,3,1
12784.0,1,1,4,3
12785.0,4,4,3,1
12787.0,3,3,2,1
12789.0,4,4,4,1
12790.0,3,4,3,1
12791.0,4,4,1,1
12792.0,3,4,3,2
12793.0,4,4,2,1
12794.0,2,2,2,4
12795.0,2,1,4,1
12797.0,4,4,3,1
12798.0,4,1,1,4
12802.0,3,3,2,3
12808.0,4,4,3,1
12809.0,3,3,3,1
12811.0,3,3,3,1
12812.0,3,3,2,4
12814.0,4,4,1,1
12815.0,2,2,3,1
12816.0,3,3,4,1
12817.0,4,4,2,1
12818.0,4,2,1,1
12820.0,3,3,2,4
12821.0,4,4,2,3
12822.0,2,1,2,3
12823.0,4,2,1,1
12824.0,2,2,3,3
12826.0,2,2,2,4
12827.0,2,2,3,3
12828.0,2,2,3,2
12829.0,4,4,1,1
12830.0,3,1,1,4
12831.0,4,4,1,2
12832.0,2,3,3,2
12833.0,3,3,3,1
12834.0,4,4,3,1
12836.0,1,1,3,1
12837.0,4,4,4,1
12838.0,2,3,4,3
12839.0,1,1,2,4
12840.0,1,1,2,4
12841.0,1,1,3,3
12842.0,3,3,1,1
12843.0,2,2,3,2
12844.0,2,3,4,3
12845.0,3,4,3,3
12847.0,1,1,2,4
12849.0,3,3,2,2
12851.0,2,4,4,4
12852.0,4,4,3,2
12853.0,2,2,2,1
12854.0,2,2,4,3
12855.0,4,4,3,4
12856.0,1,1,4,3
12857.0,3,3,3,1
12863.0,4,2,1,2
12864.0,4,4,1,4
12865.0,1,1,3,2
12866.0,3,3,3,1
12867.0,1,1,3,4
12868.0,2,2,3,3
12871.0,4,3,1,4
12872.0,3,4,4,3
12873.0,4,4,1,1
12875.0,4,4,1,4
12876.0,2,1,1,3
12877.0,2,2,3,4
12878.0,3,3,2,4
12879.0,3,2,1,4
12881.0,4,4,4,1
12882.0,2,1,1,1
12883.0,2,2,4,1
12884.0,4,3,3,1
12885.0,1,1,3,2
12886.0,2,2,3,2
12888.0,4,4,1,1
12890.0,1,2,4,4
12891.0,4,4,1,4
12893.0,1,3,4,3
12895.0,3,3,3,2
12897.0,4,4,1,3
12901.0,2,1,1,4
12902.0,4,4,3,1
12904.0,2,3,4,2
12906.0,1,1,1,3
12908.0,4,3,1,4
12909.0,2,1,2,1
12910.0,2,1,1,4
12912.0,2,1,1,3
12913.0,3,2,1,2
12915.0,4,4,4,1
12916.0,2,1,2,1
12917.0,4,2,1,1
12919.0,2,2,2,3
12920.0,1,3,4,1
12921.0,1,1,2,3
12922.0,3,3,2,4
12923.0,2,3,4,3
12924.0,3,3,1,2
12925.0,2,2,2,3
12928.0,2,2,1,4
12929.0,4,4,4,1
12930.0,3,3,2,2
12931.0,2,1,1,4
12933.0,2,3,4,3
12935.0,2,2,2,4
12936.0,1,1,3,4
12937.0,2,2,3,3
12938.0,3,3,1,4
12939.0,3,1,1,3
12940.0,1,1,4,1
12942.0,3,3,4,1
12944.0,4,3,3,2
12945.0,4,4,3,1
12947.0,2,2,2,2
12948.0,2,2,3,2
12949.0,1,1,2,3
12950.0,2,1,1,4
12951.0,3,3,3,2
12952.0,1,1,3,1
12953.0,2,1,4,1
12955.0,1,1,1,4
12956.0,4,4,4,1
12957.0,1,1,2,3
12962.0,3,3,3,2
12963.0,2,2,3,2
12965.0,1,2,4,2
12966.0,2,2,3,2
12967.0,4,2,1,1
12968.0,4,4,2,2
12970.0,2,4,4,4
12971.0,1,1,1,3
12974.0,4,4,4,1
12976.0,3,3,1,4
12977.0,4,4,4,1
12980.0,4,1,1,1
12981.0,3,3,2,4
12982.0,3,4,2,4
12984.0,3,3,3,1
12985.0,1,1,1,4
12987.0,3,3,3,1
12988.0,2,3,4,1
12989.0,3,1,1,2
12990.0,4,4,1,4
12991.0,2,2,2,3
12993.0,3,4,3,4
12994.0,3,3,3,1
12995.0,4,3,1,4
12997.0,3,2,2,2
12999.0,3,3,2,3
13000.0,4,4,2,2
13001.0,1,1,1,3
13002.0,4,4,2,3
13003.0,4,4,1,3
13004.0,1,1,2,4
13005.0,3,3,3,1
13006.0,4,4,2,1
13008.0,4,4,2,4
13011.0,4,4,4,1
13012.0,2,2,3,2
13013.0,1,1,2,2
13014.0,2,1,3,1
13015.0,1,1,3,1
13016.0,2,2,2,2
13017.0,4,2,1,1
13018.0,1,1,2,4
13021.0,2,2,2,2
13023.0,2,2,3,1
13026.0,3,3,1,4
13027.0,4,1,1,4
13028.0,1,1,1,4
13029.0,4,3,2,1
13030.0,2,3,4,2
13032.0,1,1,4,2
13033.0,4,4,3,3
13034.0,3,3,3,3
13035.0,3,3,1,4
13037.0,3,3,3,2
13038.0,3,3,2,3
13040.0,1,1,3,3
13043.0,4,3,1,1
13044.0,3,3,2,2
13045.0,3,3,2,4
13046.0,3,3,3,1
13047.0,2,1,3,1
13048.0,2,2,3,4
13049.0,4,3,1,1
13050.0,1,1,3,2
13052.0,4,4,2,2
13055.0,2,2,2,3
13058.0,4,4,3,1
13059.0,4,4,4,1
13060.0,4,4,3,1
13061.0,3,3,2,2
13062.0,4,3,1,1
13064.0,3,3,3,2
13065.0,4,4,4,1
13066.0,1,1,3,2
13067.0,3,4,4,1
13068.0,4,4,1,4
13069.0,1,1,2,4
13070.0,4,4,2,4
13072.0,4,4,3,2
13075.0,3,2,1,4
13077.0,2,3,3,4
13078.0,1,1,1,1
13079.0,4,4,2,1
13080.0,4,4,1,4
13081.0,1,1,1,3
13082.0,3,1,1,2
13083.0,3,3,2,2
13085.0,4,4,3,1
13089.0,1,1,1,3
13090.0,2,1,2,1
13091.0,2,2,1,4
13092.0,4,4,2,1
13093.0,2,1,1,2
13094.0,4,2,1,4
13095.0,4,4,1,4
13097.0,1,1,4,1
13098.0,1,1,1,3
13099.0,4,3,1,4
13101.0,4,4,2,2
13102.0,1,1,2,3
13103.0,3,2,2,1
13104.0,4,3,1,4
13106.0,4,4,1,1
13107.0,3,2,1,4
13108.0,4,4,1,4
13109.0,2,2,2,3
13110.0,2,2,4,1
13113.0,1,1,1,2
13115.0,1,1,2,3
13116.0,3,3,3,1
13117.0,3,3,2,3
13118.0,2,2,4,2
13120.0,4,4,2,3
13121.0,3,4,4,4
13122.0,3,3,2,3
13124.0,1,1,3,2
13126.0,2,2,1,4
13127.0,3,3,3,3
13130.0,4,4,1,3
13131.0,3,2,2,2
13132.0,4,4,3,1
13133.0,4,4,4,1
13134.0,2,2,2,2
13135.0,4,1,1,4
13136.0,1,1,2,3
13137.0,1,1,4,4
13138.0,3,3,3,3
13139.0,1,1,2,2
13140.0,3,4,4,2
13141.0,2,2,2,4
13142.0,1,2,2,2
13144.0,4,4,3,1
13145.0,4,4,1,1
13146.0,2,2,3,4
13147.0,4,2,1,1
13148.0,1,1,3,2
13149.0,2,2,1,3
13151.0,2,2,4,1
13153.0,2,1,1,4
13155.0,2,3,4,3
13157.0,2,2,1,4
13158.0,2,3,3,4
13159.0,1,1,3,3
13160.0,4,3,2,2
13161.0,4,4,4,1
13162.0,2,2,1,4
13165.0,3,3,1,4
13166.0,3,4,4,3
13167.0,2,2,2,2
13168.0,2,2,4,2
13169.0,4,3,1,2
13170.0,1,3,4,4
13171.0,3,4,4,1
13173.0,3,4,3,3
13174.0,1,2,4,2
13176.0,1,2,3,3
13177.0,3,3,4,2
13178.0,1,1,2,4
13182.0,3,3,1,4
13183.0,2,1,1,4
13184.0,1,2,3,4
13185.0,4,4,2,1
13186.0,1,1,2,2
13187.0,3,4,4,2
13188.0,4,3,2,1
13189.0,3,3,1,4
13192.0,2,2,3,3
13193.0,2,4,4,2
13194.0,4,4,3,3
13196.0,2,2,2,3
13198.0,1,1,2,3
13199.0,2,1,1,3
13200.0,2,2,2,2
13203.0,2,3,2,3
13207.0,4,4,1,3
13208.0,2,2,4,3
13209.0,1,1,2,3
13210.0,3,3,2,4
13211.0,3,3,1,4
13212.0,1,1,4,2
13213.0,2,2,1,3
13216.0,4,4,1,4
13217.0,4,3,1,3
13218.0,4,4,1,4
13220.0,4,3,3,1
13221.0,3,3,4,1
13223.0,4,4,1,4
13224.0,1,1,2,3
13225.0,4,1,1,3
13226.0,4,4,4,3
13227.0,4,4,2,3
13228.0,4,3,1,4
13229.0,4,4,3,1
13230.0,1,2,4,3
13232.0,1,2,4,2
13233.0,3,3,1,4
13235.0,2,2,3,3
13236.0,2,2,2,1
13238.0,4,3,3,1
13239.0,4,4,1,4
13240.0,3,3,4,2
13242.0,4,4,3,4
13243.0,2,3,4,2
13244.0,2,4,4,2
13245.0,3,2,3,1
13246.0,2,2,2,4
13247.0,2,2,2,4
13248.0,3,3,2,3
13249.0,4,3,1,2
13253.0,3,3,1,4
13255.0,4,4,2,1
13258.0,3,3,3,2
13259.0,1,3,4,3
13260.0,3,2,1,1
13261.0,4,3,1,1
13262.0,4,4,2,2
13263.0,1,1,4,3
13265.0,2,2,1,3
13266.0,1,1,1,4
13267.0,1,1,3,2
13268.0,1,1,3,4
13269.0,1,1,2,3
13270.0,4,4,1,2
13271.0,1,3,4,4
13272.0,3,3,3,1
13273.0,3,4,3,4
13276.0,2,2,4,1
13277.0,4,3,1,4
13278.0,1,1,2,4
13279.0,3,4,3,3
13280.0,2,3,3,3
13282.0,3,2,3,1
13283.0,4,4,2,4
13284.0,4,4,3,1
13285.0,1,1,2,4
13291.0,2,3,4,3
13292.0,3,3,2,2
13294.0,3,3,3,2
13295.0,4,4,3,2
13296.0,4,4,1,3
13297.0,1,1,1,2
13298.0,4,1,1,2
13299.0,4,4,4,1
13300.0,3,3,2,3
13301.0,2,3,4,3
13302.0,4,4,4,1
13304.0,4,4,2,2
13305.0,3,2,1,2
13307.0,4,4,4,2
13308.0,2,2,1,2
13309.0,2,2,2,4
13310.0,3,3,3,2
13311.0,3,3,2,1
13313.0,2,2,2,4
13314.0,1,1,3,2
13316.0,2,1,1,3
13317.0,2,2,3,1
13318.0,2,1,1,3
13319.0,1,1,3,2
13320.0,2,2,2,4
13321.0,3,2,1,4
13322.0,1,2,4,3
13323.0,3,2,3,1
13324.0,3,1,1,3
13325.0,3,2,1,2
13327.0,2,1,1,3
13328.0,4,2,1,4
13329.0,4,3,1,3
13330.0,3,3,2,4
13332.0,1,1,3,2
13334.0,1,1,3,3
13336.0,1,2,2,3
13338.0,3,3,2,1
13339.0,2,2,4,1
13340.0,2,1,1,3
13341.0,3,3,3,1
13343.0,3,3,3,1
13344.0,2,1,3,1
13345.0,4,4,3,1
13347.0,4,3,1,1
13348.0,3,3,3,4
13349.0,2,2,2,1
13350.0,2,1,3,1
13351.0,3,2,3,1
13352.0,2,2,2,2
13354.0,1,2,2,4
13355.0,2,2,3,3
13356.0,2,2,3,1
13357.0,2,3,4,2
13358.0,3,4,3,1
13359.0,2,2,3,1
13362.0,1,1,3,2
13363.0,1,1,2,1
13364.0,3,4,3,3
13365.0,1,1,3,2
13366.0,4,4,1,4
13368.0,4,3,2,1
13369.0,4,4,2,1
13370.0,3,3,3,2
13372.0,3,3,3,1
13373.0,1,1,2,2
13375.0,2,2,2,2
13376.0,3,2,3,1
13379.0,1,3,3,4
13381.0,1,1,2,2
13382.0,4,4,3,3
13384.0,1,1,1,2
13385.0,3,4,3,1
13388.0,2,2,3,1
13389.0,3,3,3,1
13390.0,3,2,1,2
13391.0,4,4,4,1
13394.0,1,1,1,4
13395.0,3,4,1,3
13396.0,3,2,2,1
13397.0,3,2,2,1
13398.0,3,3,2,2
13402.0,3,4,2,4
13403.0,4,3,2,3
13404.0,4,4,2,3
13405.0,4,3,3,1
13408.0,1,1,1,3
13410.0,3,3,1,3
13411.0,3,4,4,2
13414.0,4,2,1,4
13416.0,3,2,3,1
13417.0,3,3,4,1
13418.0,1,1,2,2
13419.0,3,3,1,4
13420.0,4,4,2,2
13421.0,2,2,2,4
13422.0,1,1,2,2
13425.0,2,2,2,3
13426.0,2,1,2,4
13427.0,3,3,1,4
13428.0,1,2,4,4
13429.0,1,1,1,4
13430.0,2,2,1,4
13431.0,2,1,2,2
13434.0,4,2,1,4
13435.0,1,1,1,2
13436.0,2,2,3,1
13437.0,1,1,3,1
13439.0,3,4,4,4
13441.0,3,3,1,4
13447.0,1,1,3,2
13448.0,1,1,3,2
13449.0,2,2,2,4
13450.0,2,1,1,4
13451.0,1,1,4,4
13452.0,4,3,4,1
13453.0,4,4,3,1
13455.0,3,3,3,1
13456.0,2,1,2,2
13458.0,1,1,2,3
13460.0,2,3,1,4
13461.0,3,1,1,4
13462.0,4,4,3,2
13464.0,1,1,3,2
13466.0,4,4,1,3
13467.0,1,1,4,3
13468.0,1,1,3,1
13470.0,4,4,3,4
13471.0,1,1,3,3
13473.0,4,4,2,2
13474.0,2,4,4,3
13475.0,2,2,2,3
13476.0,3,2,3,1
13477.0,2,2,2,3
13479.0,4,4,3,1
13481.0,2,2,2,3
13482.0,4,4,2,3
13483.0,3,4,1,4
13484.0,4,4,4,1
13485.0,3,3,2,3
13486.0,2,2,3,3
13487.0,3,4,3,1
13488.0,1,1,2,2
13489.0,4,4,1,4
13491.0,2,3,2,2
13492.0,2,2,3,1
13493.0,4,3,1,1
13494.0,4,4,3,2
13495.0,3,2,1,3
13496.0,3,3,3,2
13497.0,4,4,3,2
13499.0,3,2,1,4
13500.0,2,1,3,2
13501.0,3,2,2,2
13502.0,4,4,2,4
13503.0,3,3,2,4
13504.0,2,3,3,2
13505.0,1,1,2,2
13506.0,4,4,2,3
13507.0,1,1,3,2
13508.0,4,4,4,1
13509.0,3,3,1,4
13510.0,1,1,2,3
13512.0,4,4,3,1
13513.0,4,4,2,2
13514.0,4,4,3,1
13515.0,2,3,2,4
13516.0,3,2,1,2
13517.0,1,1,3,2
13518.0,2,2,2,3
13519.0,4,4,4,1
13520.0,2,1,1,1
13521.0,1,1,4,4
13522.0,3,3,3,2
13523.0,2,1,2,1
13524.0,3,3,2,2
13525.0,4,3,1,1
13527.0,1,2,3,3
13529.0,4,4,4,1
13531.0,4,4,3,1
13532.0,1,3,4,3
13533.0,2,4,4,4
13534.0,1,1,2,3
13536.0,1,1,2,2
13538.0,4,2,3,1
13539.0,3,3,3,1
13544.0,2,4,4,2
13546.0,2,3,4,4
13548.0,1,3,4,3
13549.0,3,3,3,2
13551.0,4,4,4,1
13552.0,2,1,2,1
13555.0,1,1,1,3
13557.0,3,3,1,4
13558.0,1,2,4,3
13560.0,1,2,4,2
13561.0,4,4,4,2
13562.0,2,2,3,1
13563.0,2,2,4,1
13564.0,3,2,3,1
13565.0,3,4,4,4
13566.0,1,1,4,4
13568.0,2,4,4,2
13569.0,3,4,4,2
13570.0,3,4,4,4
13571.0,1,1,4,4
13572.0,3,2,1,1
13573.0,3,4,2,2
13575.0,2,2,3,4
13576.0,2,1,1,2
13577.0,2,2,3,2
13579.0,4,4,3,1
13581.0,4,4,4,1
13583.0,2,2,2,4
13584.0,4,4,4,1
13587.0,3,1,1,1
13588.0,1,1,1,4
13589.0,3,3,4,1
13590.0,2,2,1,4
13591.0,3,2,3,1
13592.0,4,4,4,1
13593.0,2,2,4,1
13594.0,2,2,2,4
13596.0,1,1,4,3
13598.0,1,3,4,2
13599.0,1,1,2,3
13600.0,4,4,1,2
13601.0,2,3,4,4
13602.0,2,2,2,4
13603.0,1,3,3,4
13606.0,3,4,3,3
13607.0,1,1,4,2
13610.0,1,3,4,3
13611.0,3,3,2,3
13614.0,1,2,4,2
13615.0,4,4,3,2
13617.0,2,3,3,3
13618.0,4,4,1,4
13621.0,3,4,1,4
13623.0,2,3,4,2
13626.0,4,4,2,4
13627.0,2,2,2,2
13629.0,3,1,1,3
13630.0,2,2,1,4
13631.0,4,1,1,1
13632.0,1,1,3,2
13634.0,1,2,4,2
13635.0,1,1,2,3
13636.0,3,3,3,2
13637.0,2,3,4,3
13638.0,3,3,2,2
13639.0,2,1,1,4
13642.0,2,4,4,2
13643.0,3,3,3,3
13644.0,1,1,2,2
13645.0,4,3,1,2
13647.0,2,2,2,2
13649.0,4,4,3,2
13650.0,2,2,3,2
13651.0,3,4,4,1
13652.0,3,3,3,2
13654.0,1,1,2,3
13655.0,2,3,2,2
13656.0,3,4,3,4
13657.0,4,3,2,2
13658.0,1,1,3,1
13659.0,2,2,3,1
13662.0,3,3,2,2
13663.0,4,4,3,1
13666.0,4,4,4,2
13667.0,1,3,4,3
13668.0,1,1,3,2
13669.0,4,4,1,3
13670.0,2,3,2,4
13672.0,4,4,3,1
13673.0,1,2,4,2
13675.0,4,4,2,4
13678.0,3,4,1,4
13680.0,1,1,3,3
13681.0,2,2,3,3
13682.0,4,4,4,1
13684.0,3,4,4,4
13685.0,2,1,1,4
13686.0,4,4,3,4
13689.0,4,1,1,4
13690.0,3,3,3,1
13692.0,3,2,1,3
13694.0,1,1,1,4
13695.0,2,1,1,3
13697.0,3,3,1,4
13699.0,4,3,4,1
13700.0,1,2,2,4
13703.0,4,4,3,1
13704.0,1,1,2,2
13705.0,4,3,2,1
13706.0,4,4,3,3
13707.0,3,3,3,1
13708.0,3,4,3,4
13709.0,1,1,2,2
13710.0,3,3,1,4
13711.0,4,4,2,2
13712.0,4,4,1,4
13715.0,2,3,4,3
13716.0,4,4,3,4
13717.0,2,2,1,4
13718.0,4,4,2,1
13719.0,2,2,2,2
13720.0,3,3,2,2
13721.0,2,1,2,3
13722.0,2,1,1,3
13723.0,4,4,3,1
13725.0,2,2,3,1
13726.0,2,1,1,4
13727.0,2,2,3,2
13728.0,3,3,3,1
13730.0,2,2,2,2
13731.0,3,3,3,1
13732.0,1,1,1,4
13735.0,1,1,4,1
13736.0,1,3,4,4
13737.0,3,4,4,1
13739.0,4,2,1,1
13740.0,3,4,1,4
13741.0,3,3,3,1
13742.0,1,1,4,1
13743.0,3,2,1,4
13744.0,3,3,1,4
13745.0,3,3,1,4
13747.0,4,4,3,1
13748.0,4,3,1,1
13750.0,4,2,1,1
13751.0,4,4,1,2
13752.0,2,2,2,2
13753.0,3,3,2,4
13754.0,4,4,1,3
13755.0,1,1,4,2
13756.0,2,1,1,3
13758.0,2,1,1,2
13759.0,2,2,2,2
13760.0,3,4,4,4
13761.0,2,2,3,2
13762.0,4,4,1,4
13763.0,3,1,1,3
13764.0,1,2,4,3
13767.0,1,1,1,2
13769.0,2,2,3,2
13771.0,2,1,2,3
13772.0,1,2,4,3
13774.0,3,3,3,2
13777.0,1,1,1,3
13778.0,4,4,3,2
13780.0,2,3,4,3
13781.0,4,4,4,1
13782.0,2,3,4,2
13784.0,3,2,1,3
13786.0,4,4,1,4
13787.0,4,4,2,3
13790.0,1,1,1,4
13791.0,4,1,1,4
13792.0,4,4,3,2
13798.0,1,1,1,4
13799.0,3,3,2,4
13800.0,3,3,2,3
13801.0,2,3,3,1
13802.0,3,1,1,3
13803.0,4,4,3,2
13804.0,2,1,2,2
13805.0,4,2,1,4
13806.0,3,3,4,1
13807.0,4,4,4,1
13808.0,1,1,2,2
13809.0,4,4,4,1
13810.0,2,1,3,1
13811.0,4,3,4,1
13812.0,2,2,3,2
13813.0,2,1,3,1
13814.0,2,1,1,2
13815.0,1,1,2,3
13816.0,2,2,3,1
13817.0,4,4,3,2
13819.0,3,3,1,4
13821.0,3,4,4,2
13822.0,1,1,3,4
13823.0,2,1,2,1
13824.0,3,2,1,3
13826.0,4,4,3,1
13827.0,1,3,4,2
13828.0,2,2,1,4
13831.0,3,2,2,1
13832.0,4,4,3,3
13833.0,3,3,4,1
13835.0,2,3,3,2
13837.0,4,4,2,4
13838.0,2,3,4,2
13841.0,4,4,1,4
13842.0,1,1,3,1
13844.0,1,1,3,3
13845.0,3,3,1,4
13846.0,3,3,3,2
13848.0,4,3,1,4
13849.0,1,1,2,2
13850.0,1,1,2,3
13851.0,2,1,1,3
13853.0,2,1,2,1
13854.0,2,1,1,1
13856.0,4,3,1,4
13858.0,3,3,3,1
13859.0,4,4,4,3
13860.0,1,1,3,2
13862.0,2,2,2,4
13863.0,4,4,2,3
13865.0,3,3,3,1
13866.0,4,4,3,2
13867.0,2,2,3,1
13868.0,1,1,1,4
13869.0,1,1,4,2
13870.0,2,1,2,2
13871.0,1,1,3,2
13873.0,4,4,3,1
13874.0,4,4,3,1
13875.0,2,2,2,4
13876.0,4,4,4,1
13877.0,4,4,1,4
13878.0,2,1,2,1
13880.0,2,1,2,3
13881.0,1,1,1,3
13882.0,1,1,2,2
13883.0,1,1,2,2
13884.0,3,3,4,2
13885.0,3,3,3,1
13886.0,3,3,3,2
13887.0,4,4,3,1
13888.0,3,3,3,1
13889.0,3,3,3,1
13890.0,2,2,3,2
13892.0,3,3,1,4
13893.0,4,3,3,1
13894.0,4,3,2,3
13895.0,1,1,2,2
13897.0,2,2,2,4
13898.0,4,4,2,3
13899.0,4,4,3,2
13900.0,3,3,3,2
13901.0,2,1,2,2
13904.0,4,4,2,4
13908.0,2,1,2,3
13911.0,2,1,1,3
13914.0,1,1,2,3
13917.0,4,4,2,4
13918.0,3,2,1,4
13919.0,3,3,1,3
13922.0,4,4,2,1
13923.0,2,2,3,2
13924.0,1,1,2,3
13925.0,2,2,3,1
13926.0,3,2,3,1
13927.0,3,3,2,3
13928.0,3,3,4,1
13929.0,4,3,1,1
13930.0,3,3,1,4
13931.0,3,2,2,4
13932.0,4,4,4,1
13933.0,3,3,3,2
13934.0,3,3,2,2
13936.0,3,3,2,4
13937.0,4,4,2,4
13938.0,3,4,3,4
13939.0,3,3,1,4
13940.0,2,2,2,2
13941.0,3,1,1,1
13946.0,4,3,1,4
13947.0,4,4,3,2
13948.0,4,4,2,1
13949.0,1,1,1,4
13950.0,3,3,3,1
13951.0,3,3,2,2
13952.0,1,1,2,1
13953.0,4,1,1,3
13954.0,2,2,4,1
13955.0,3,4,4,2
13956.0,1,3,4,2
13959.0,2,4,4,3
13960.0,3,3,2,4
13962.0,4,4,3,1
13963.0,3,3,2,2
13967.0,4,4,1,2
13969.0,1,1,3,2
13971.0,1,1,2,3
13972.0,4,4,2,3
13973.0,4,4,3,2
13974.0,2,2,3,4
13975.0,1,1,4,4
13976.0,4,4,1,2
13978.0,3,3,1,4
13979.0,1,1,2,4
13980.0,3,3,1,1
13982.0,2,2,2,3
13983.0,2,2,2,1
13984.0,4,3,1,4
13985.0,1,1,3,3
13986.0,2,2,1,4
13988.0,1,1,2,2
13989.0,3,2,1,3
13990.0,4,4,2,3
13991.0,1,2,2,4
13992.0,3,4,2,4
13993.0,2,1,3,1
13994.0,1,1,3,2
13995.0,2,2,2,3
13999.0,1,1,2,3
14000.0,4,3,1,4
14001.0,3,2,1,2
14002.0,2,3,1,3
14004.0,1,1,1,3
14005.0,2,1,1,4
14006.0,3,3,1,3
14009.0,3,3,3,3
14012.0,4,4,2,3
14013.0,3,4,2,4
14014.0,2,2,1,4
14015.0,2,1,1,2
14016.0,2,1,2,1
14019.0,2,1,1,3
14020.0,2,2,2,3
14021.0,4,3,3,1
14022.0,3,3,1,4
14023.0,3,3,2,3
14024.0,3,3,3,2
14027.0,4,4,2,4
14029.0,3,3,2,1
14030.0,1,2,3,1
14031.0,1,1,1,1
14032.0,2,1,2,3
14034.0,1,3,4,3
14035.0,3,2,2,3
14036.0,3,3,3,1
14037.0,4,4,4,2
14038.0,2,2,2,4
14039.0,3,3,1,4
14040.0,1,1,3,2
14041.0,4,4,4,4
14044.0,1,3,4,3
14045.0,4,2,1,1
14046.0,4,4,1,4
14047.0,4,3,2,1
14048.0,2,4,4,4
14049.0,1,1,3,3
14050.0,2,2,2,4
14051.0,1,1,1,1
14052.0,1,2,4,3
14053.0,4,4,1,4
14054.0,4,4,2,4
14055.0,4,2,1,1
14056.0,1,1,4,3
14057.0,1,1,1,4
14059.0,4,4,1,3
14060.0,1,1,1,4
14062.0,2,1,1,3
14064.0,2,2,1,4
14066.0,4,4,3,1
14067.0,2,3,3,3
14068.0,4,4,4,1
14071.0,1,2,4,3
14073.0,2,3,3,4
14075.0,3,3,1,4
14076.0,2,4,4,4
14077.0,3,3,3,3
14078.0,3,3,4,3
14079.0,4,3,1,2
14080.0,4,4,2,4
14081.0,2,3,4,2
14082.0,4,4,4,3
14083.0,1,3,4,3
14085.0,1,1,3,3
14087.0,1,2,4,4
14088.0,1,1,1,1
14089.0,3,3,2,4
14090.0,4,4,1,4
14092.0,1,1,3,3
14093.0,1,1,4,4
14096.0,1,1,4,1
14098.0,2,3,4,4
14099.0,1,1,3,3
14100.0,3,4,4,2
14101.0,3,1,1,4
14102.0,1,1,2,3
14104.0,3,4,4,1
14105.0,2,2,2,3
14107.0,2,2,2,3
14108.0,2,2,2,2
14109.0,3,4,3,3
14110.0,1,1,1,3
14111.0,4,3,1,2
14112.0,1,1,2,3
14113.0,3,2,1,3
14114.0,4,4,3,1
14116.0,1,1,3,2
14117.0,4,4,1,4
14121.0,1,1,2,3
14124.0,4,2,1,4
14125.0,1,1,3,2
14126.0,2,1,1,1
14127.0,3,3,3,1
14128.0,3,3,2,4
14129.0,3,2,2,3
14130.0,3,4,4,3
14132.0,1,1,1,4
14133.0,4,3,2,2
14135.0,2,1,1,3
14138.0,1,1,2,3
14139.0,2,2,1,4
14140.0,1,1,2,4
14141.0,2,2,3,2
14142.0,4,4,2,4
14143.0,4,4,4,1
14145.0,4,1,1,1
14146.0,1,1,2,3
14147.0,4,4,1,1
14148.0,4,4,4,1
14149.0,3,3,3,2
14150.0,4,3,1,4
14152.0,3,3,2,4
14154.0,3,2,3,1
14155.0,4,4,4,1
14156.0,1,1,1,1
14157.0,3,4,4,3
14158.0,1,2,1,4
14159.0,1,1,4,4
14161.0,2,3,4,2
14162.0,4,4,4,1
14163.0,3,1,1,1
14164.0,2,1,1,4
14165.0,4,4,4,2
14167.0,3,3,4,1
14171.0,1,3,4,3
14173.0,3,3,4,1
14174.0,2,3,4,4
14175.0,2,1,2,2
14176.0,4,4,3,2
14177.0,3,3,4,1
14178.0,1,1,4,4
14179.0,1,1,4,3
14180.0,1,1,4,1
14184.0,2,2,4,1
14185.0,4,4,4,1
14188.0,3,2,1,4
14189.0,1,1,1,4
14191.0,1,1,2,4
14193.0,3,3,2,3
14194.0,1,1,2,2
14195.0,4,2,1,1
14196.0,4,3,1,2
14198.0,3,3,3,1
14199.0,4,4,2,1
14201.0,3,3,1,3
14204.0,1,2,4,3
14205.0,4,3,3,1
14206.0,4,4,2,4
14208.0,4,4,2,2
14209.0,2,2,3,1
14210.0,2,2,3,2
14211.0,2,2,2,3
14212.0,4,1,1,4
14214.0,2,3,2,3
14215.0,2,2,2,3
14216.0,1,1,2,1
14217.0,2,2,3,1
14218.0,3,3,2,4
14219.0,2,3,2,3
14220.0,4,3,2,2
14221.0,1,1,2,2
14222.0,3,3,1,4
14223.0,3,3,3,1
14224.0,2,3,4,1
14226.0,2,2,1,2
14227.0,1,1,2,3
14229.0,3,2,1,2
14231.0,3,3,3,2
14232.0,2,2,1,4
14233.0,3,2,1,3
14234.0,1,1,3,4
14235.0,2,1,1,4
14236.0,4,4,1,4
14237.0,4,4,4,1
14238.0,4,4,2,3
14239.0,2,2,3,2
14240.0,3,3,3,2
14241.0,4,4,2,4
14242.0,4,4,3,2
14243.0,2,2,3,1
14245.0,2,2,3,2
14246.0,2,2,2,2
14247.0,4,4,4,1
14248.0,4,4,2,2
14250.0,1,1,2,3
14251.0,1,1,1,4
14256.0,3,3,3,1
14257.0,2,1,1,3
14258.0,2,1,1,1
14259.0,4,4,2,3
14261.0,1,1,3,1
14262.0,1,1,2,4
14264.0,4,4,4,1
14265.0,3,3,2,1
14267.0,3,2,3,1
14270.0,4,4,3,1
14271.0,4,4,3,3
14272.0,3,4,1,3
14273.0,3,3,3,3
14276.0,3,2,2,3
14277.0,1,1,3,1
14280.0,4,4,3,1
14282.0,2,1,1,4
14284.0,2,2,4,1
14285.0,3,1,1,1
14286.0,1,1,1,4
14287.0,4,4,1,4
14288.0,4,3,2,2
14289.0,3,3,3,1
14290.0,2,2,3,2
14291.0,1,1,2,3
14292.0,2,1,1,2
14293.0,3,3,2,4
14295.0,4,3,1,4
14297.0,3,2,2,3
14298.0,1,1,1,4
14299.0,2,1,1,2
14300.0,4,4,2,4
14301.0,3,2,1,4
14304.0,4,4,3,1
14305.0,1,1,2,3
14306.0,2,1,1,1
14307.0,1,1,2,3
14309.0,2,2,2,3
14311.0,4,4,3,1
14312.0,2,2,2,2
14314.0,4,4,1,4
14315.0,2,1,2,2
14317.0,2,2,2,2
14320.0,3,4,2,4
14321.0,2,2,1,4
14323.0,3,3,3,2
14326.0,4,4,2,3
14327.0,4,3,2,3
14329.0,1,1,2,3
14331.0,3,3,3,2
14332.0,3,2,1,4
14333.0,3,2,4,1
14334.0,2,2,2,2
14335.0,1,2,3,3
14336.0,2,2,1,4
14338.0,3,3,2,2
14339.0,4,4,2,4
14340.0,4,4,3,2
14341.0,2,2,2,3
14342.0,3,3,1,3
14344.0,3,3,3,1
14345.0,3,3,3,2
14346.0,3,3,2,1
14348.0,4,4,2,2
14349.0,1,3,4,3
14350.0,4,4,2,3
14351.0,4,4,2,1
14352.0,3,2,2,1
14353.0,4,4,2,4
14354.0,3,3,1,4
14355.0,4,4,3,3
14356.0,2,2,3,1
14357.0,1,3,4,4
14359.0,1,1,3,1
14360.0,1,1,3,2
14362.0,1,3,4,3
14364.0,2,1,1,2
14367.0,1,1,3,2
14368.0,4,4,4,1
14371.0,4,4,3,2
14373.0,4,4,4,1
14375.0,2,4,4,4
14377.0,4,3,1,1
14379.0,3,4,3,4
14381.0,1,3,4,4
14382.0,1,1,3,4
14383.0,2,2,2,2
14385.0,2,2,2,4
14386.0,4,4,3,1
14387.0,1,1,4,2
14388.0,1,1,2,3
14389.0,2,2,1,4
14390.0,1,1,3,2
14393.0,4,4,4,1
14395.0,1,1,4,3
14396.0,3,4,4,3
14397.0,2,1,1,4
14400.0,3,3,1,4
14401.0,1,1,1,4
14403.0,4,2,1,1
14404.0,2,2,3,2
14406.0,4,4,3,2
14407.0,2,2,1,2
14408.0,2,1,1,4
14409.0,3,2,1,3
14410.0,1,3,4,3
14411.0,4,3,2,1
14412.0,2,1,1,3
14413.0,4,4,4,3
14414.0,2,2,1,4
14415.0,1,1,4,2
14416.0,3,2,1,4
14418.0,1,1,2,4
14419.0,1,3,4,3
14420.0,2,3,2,4
14421.0,3,3,2,3
14422.0,1,1,2,3
14423.0,4,4,1,4
14424.0,4,2,1,1
14426.0,1,1,2,2
14427.0,3,2,2,4
14428.0,2,3,4,1
14431.0,4,4,3,1
14432.0,1,1,4,4
14434.0,3,1,1,1
14436.0,4,4,2,4
14437.0,4,4,2,4
14438.0,4,4,3,4
14439.0,3,1,1,1
14440.0,3,2,2,1
14441.0,3,2,3,1
14442.0,3,2,3,1
14443.0,2,2,2,3
14446.0,1,2,4,4
14447.0,2,2,3,3
14448.0,4,4,4,3
14449.0,1,3,4,4
14450.0,3,4,4,3
14451.0,1,3,4,4
14452.0,1,3,4,2
14453.0,3,4,4,2
14456.0,1,1,4,4
14457.0,4,4,1,4
14459.0,3,1,1,2
14460.0,4,4,1,4
14461.0,1,2,4,2
14462.0,1,2,4,3
14463.0,4,3,1,1
14465.0,2,3,4,3
14466.0,3,2,2,2
14467.0,2,3,4,3
14470.0,3,4,4,1
14472.0,1,2,4,3
14473.0,4,4,2,1
14474.0,2,2,4,1
14475.0,3,3,2,2
14476.0,4,4,3,2
14477.0,4,2,1,4
14479.0,4,4,3,1
14480.0,2,2,2,2
14481.0,3,3,1,4
14482.0,1,1,2,3
14483.0,4,4,2,4
14484.0,3,2,1,4
14485.0,1,3,4,3
14487.0,2,3,4,3
14488.0,1,1,1,4
14489.0,3,3,3,4
14491.0,4,4,3,1
14493.0,1,1,2,2
14494.0,3,3,2,4
14495.0,4,4,2,4
14496.0,4,4,3,1
14497.0,3,4,3,1
14498.0,1,2,4,3
14499.0,1,3,4,4
14500.0,4,3,1,1
14501.0,4,4,1,4
14502.0,1,2,4,3
14503.0,1,1,2,3
14504.0,2,3,4,2
14505.0,1,1,4,3
14506.0,1,2,4,2
14507.0,2,2,3,2
14508.0,1,3,4,2
14511.0,2,1,2,3
14512.0,3,4,4,1
14513.0,4,4,1,3
14514.0,3,3,3,2
14515.0,2,1,2,3
14517.0,3,3,4,1
14518.0,3,3,1,3
14520.0,4,4,1,2
14522.0,4,2,1,3
14523.0,3,3,1,3
14524.0,1,2,4,1
14525.0,1,1,3,2
14527.0,1,1,4,1
14528.0,2,2,1,4
14529.0,1,2,4,4
14530.0,1,1,3,1
14532.0,3,3,4,1
14533.0,3,2,1,4
14534.0,1,1,4,2
14535.0,1,1,4,3
14536.0,4,4,4,1
14537.0,3,2,2,2
14538.0,4,4,3,2
14539.0,2,2,2,4
14540.0,2,3,4,1
14541.0,2,2,3,3
14542.0,4,4,4,1
14543.0,3,1,3,1
14544.0,2,2,2,3
14546.0,1,1,4,3
14547.0,1,1,3,3
14548.0,4,3,1,3
14549.0,3,4,4,2
14550.0,1,1,3,4
14551.0,4,4,2,1
14552.0,2,4,4,4
14553.0,2,3,4,2
14554.0,1,1,3,3
14555.0,4,4,3,2
14557.0,3,2,1,4
14560.0,3,2,1,1
14561.0,2,2,1,4
14562.0,1,1,4,2
14565.0,2,1,2,1
14566.0,4,1,1,4
14567.0,2,1,2,2
14569.0,2,1,3,1
14570.0,3,4,4,2
14572.0,1,1,4,2
14573.0,1,2,4,1
14576.0,4,4,2,2
14577.0,2,3,4,3
14578.0,1,2,3,3
14581.0,2,3,2,4
14582.0,3,3,2,2
14583.0,1,2,4,4
14584.0,2,2,4,2
14585.0,2,3,4,4
14586.0,4,4,1,4
14587.0,1,2,4,3
14589.0,4,4,4,1
14591.0,1,2,3,3
14592.0,1,2,4,4
14593.0,1,3,4,4
14594.0,3,4,4,2
14595.0,2,2,3,3
14597.0,2,2,2,4
14598.0,1,3,4,4
14600.0,4,4,4,1
14601.0,3,2,1,4
14603.0,4,3,1,4
14606.0,1,1,4,3
14607.0,2,1,1,4
14608.0,4,2,1,1
14609.0,4,3,1,4
14616.0,4,4,1,2
14618.0,4,4,1,1
14619.0,4,4,3,1
14620.0,3,4,3,2
14621.0,2,2,2,2
14622.0,3,4,3,2
14623.0,1,3,4,2
14624.0,3,3,2,4
14625.0,3,3,3,1
14626.0,1,1,2,2
14628.0,3,3,2,1
14629.0,1,1,4,2
14631.0,3,3,1,3
14632.0,4,4,2,3
14633.0,4,4,4,1
14636.0,3,3,3,2
14638.0,3,2,2,1
14639.0,1,1,3,1
14640.0,2,1,3,1
14641.0,3,3,2,4
14642.0,4,4,1,2
14643.0,4,3,1,4
14644.0,4,3,3,1
14645.0,3,3,2,2
14646.0,1,1,1,3
14647.0,3,4,4,3
14649.0,1,2,4,3
14651.0,2,3,4,3
14652.0,2,4,4,2
14653.0,1,2,4,2
14655.0,3,1,1,3
14656.0,2,4,4,3
14657.0,2,3,4,3
14658.0,3,3,4,1
14659.0,1,2,4,2
14660.0,2,3,3,3
14661.0,4,3,3,1
14662.0,1,3,4,3
14664.0,1,1,4,4
14665.0,2,2,3,1
14666.0,2,2,2,4
14667.0,1,1,3,2
14669.0,1,3,4,3
14670.0,2,4,4,4
14672.0,3,3,3,2
14673.0,3,2,2,3
14675.0,1,1,4,3
14676.0,3,1,1,4
14680.0,1,1,1,3
14681.0,4,3,2,1
14682.0,4,4,1,4
14684.0,1,3,4,4
14687.0,3,2,1,3
14688.0,1,1,2,4
14689.0,4,4,4,4
14690.0,2,3,4,3
14691.0,2,1,3,2
14692.0,3,3,4,2
14693.0,4,4,4,2
14696.0,2,2,2,3
14697.0,3,4,3,2
14698.0,1,1,4,3
14699.0,4,4,3,3
14700.0,2,1,2,3
14701.0,1,2,4,2
14702.0,1,1,4,2
14703.0,1,2,3,4
14704.0,1,2,4,3
14705.0,4,4,1,4
14708.0,4,3,1,2
14709.0,1,1,2,3
14710.0,1,2,4,4
14711.0,1,1,4,1
14712.0,3,2,2,2
14713.0,1,2,4,3
14714.0,3,3,1,2
14715.0,3,3,3,2
14716.0,2,3,3,4
14719.0,1,2,4,3
14720.0,2,2,4,1
14722.0,3,4,4,2
14723.0,1,3,4,3
14725.0,1,1,2,2
14727.0,4,4,3,1
14729.0,3,4,4,4
14730.0,1,2,4,3
14731.0,3,3,4,4
14732.0,2,2,3,2
14733.0,1,1,1,1
14735.0,1,1,2,2
14737.0,4,3,1,2
14738.0,3,2,2,2
14739.0,3,1,1,4
14740.0,2,2,3,3
14741.0,3,3,2,3
14744.0,4,3,1,2
14745.0,2,2,1,4
14747.0,4,4,4,1
14748.0,2,2,2,4
14752.0,4,2,1,3
14753.0,2,2,3,2
14754.0,3,3,2,3
14755.0,1,1,3,1
14756.0,1,1,2,2
14757.0,3,2,3,1
14758.0,2,2,4,1
14759.0,2,2,4,1
14760.0,4,4,3,3
14761.0,4,4,2,3
14762.0,4,4,1,4
14764.0,4,2,1,4
14765.0,3,4,4,2
14766.0,2,2,3,3
14768.0,4,4,2,1
14769.0,1,1,3,3
14770.0,3,3,3,2
14772.0,4,4,3,2
14775.0,3,3,1,4
14776.0,2,1,1,4
14778.0,3,3,3,2
14779.0,3,4,4,1
14780.0,2,2,2,3
14782.0,4,4,1,3
14784.0,4,4,1,1
14785.0,4,3,1,4
14788.0,1,1,2,3
14789.0,3,3,1,4
14790.0,3,3,1,4
14792.0,4,4,4,2
14793.0,2,2,3,2
14794.0,2,2,3,1
14795.0,4,4,4,1
14796.0,1,1,4,4
14798.0,4,4,2,4
14799.0,3,3,2,1
14800.0,1,1,3,4
14801.0,1,3,4,3
14803.0,3,3,3,3
14804.0,2,1,2,1
14805.0,3,3,4,1
14806.0,3,3,1,4
14808.0,1,1,3,2
14810.0,1,2,4,3
14813.0,4,4,4,3
14815.0,1,1,2,4
14816.0,4,4,4,1
14817.0,2,2,2,2
14818.0,3,3,3,2
14819.0,4,4,3,1
14820.0,3,3,3,2
14821.0,4,4,3,3
14823.0,2,4,4,1
14824.0,2,1,1,3
14825.0,2,2,3,3
14828.0,4,2,1,3
14829.0,3,3,2,4
14830.0,1,3,4,4
14834.0,2,2,2,2
14836.0,3,3,3,3
14837.0,1,2,2,4
14840.0,4,4,3,2
14841.0,2,1,2,2
14842.0,2,1,3,1
14844.0,1,1,2,2
14847.0,4,3,3,2
14849.0,1,1,1,3
14850.0,4,4,2,4
14851.0,3,3,2,3
14852.0,1,1,2,2
14853.0,4,3,3,1
14854.0,2,1,2,2
14855.0,3,2,2,1
14856.0,1,1,2,2
14857.0,2,2,3,1
14859.0,2,2,2,2
14860.0,2,2,1,4
14861.0,4,4,1,3
14862.0,2,2,1,4
14863.0,3,2,2,4
14865.0,4,4,1,4
14866.0,2,1,1,2
14867.0,3,3,3,2
14868.0,1,1,3,3
14869.0,1,2,3,2
14870.0,4,4,3,2
14871.0,2,4,4,2
14873.0,3,3,4,1
14875.0,3,2,2,1
14878.0,2,2,3,3
14880.0,3,3,3,2
14881.0,2,2,1,4
14882.0,3,1,2,1
14883.0,2,3,1,4
14885.0,3,2,1,4
14886.0,4,4,3,2
14887.0,4,1,1,4
14888.0,3,4,3,3
14889.0,4,4,3,3
14890.0,4,4,3,3
14891.0,3,3,1,4
14893.0,1,1,2,2
14894.0,3,2,2,3
14895.0,1,1,3,1
14896.0,3,4,3,3
14897.0,3,2,3,1
14898.0,2,3,3,2
14901.0,2,2,3,2
14902.0,2,2,2,3
14903.0,1,1,4,3
14904.0,1,1,1,4
14905.0,4,3,1,3
14907.0,2,1,2,2
14908.0,3,3,2,2
14910.0,2,2,3,3
14911.0,1,1,2,1
14912.0,3,3,1,4
14913.0,2,3,1,4
14915.0,4,4,3,2
14916.0,2,2,1,4
14918.0,2,1,1,2
14920.0,2,2,3,2
14921.0,2,2,2,4
14923.0,1,1,3,2
14924.0,4,4,3,1
14929.0,3,2,2,3
14930.0,2,1,3,1
14931.0,3,2,2,1
14932.0,4,4,4,1
14934.0,2,2,2,2
14935.0,4,2,1,3
14936.0,1,1,2,2
14937.0,2,1,2,2
14944.0,1,1,1,2
14946.0,4,3,3,1
14947.0,3,3,2,2
14948.0,2,2,2,3
14950.0,2,1,3,1
14951.0,3,3,1,4
14952.0,2,1,1,2
14953.0,1,2,4,3
14954.0,1,2,4,2
14957.0,4,4,4,4
14958.0,3,3,4,1
14959.0,3,3,3,4
14960.0,3,4,3,4
14961.0,1,1,2,3
14962.0,4,4,3,1
14963.0,1,2,4,3
14964.0,4,4,2,2
14965.0,1,2,4,3
14966.0,1,2,4,4
14967.0,4,2,1,2
14968.0,1,3,4,4
14970.0,3,2,3,1
14971.0,1,1,4,2
14972.0,3,4,4,1
14973.0,3,2,2,1
14974.0,2,4,4,2
14975.0,3,3,1,4
14976.0,3,3,4,1
14978.0,1,2,4,1
14981.0,4,4,2,4
14984.0,3,4,4,1
14985.0,2,4,4,4
14987.0,4,4,1,3
14988.0,3,4,4,3
14995.0,3,4,4,3
14997.0,3,3,1,4
14998.0,2,4,4,3
15000.0,1,2,4,3
15002.0,2,2,3,3
15004.0,1,2,4,2
15005.0,1,1,4,3
15006.0,1,2,4,4
15007.0,4,4,4,2
15009.0,1,1,4,3
15010.0,2,2,3,2
15012.0,2,4,4,3
15014.0,3,4,4,4
15016.0,3,4,4,1
15017.0,2,3,4,2
15018.0,4,4,3,1
15019.0,2,4,4,4
15021.0,1,2,4,3
15022.0,1,1,4,3
15023.0,1,1,4,2
15024.0,2,2,4,3
15025.0,1,2,4,3
15026.0,3,4,4,4
15027.0,3,2,1,2
15028.0,3,3,3,4
15030.0,4,3,1,2
15031.0,2,3,4,2
15032.0,3,1,1,4
15033.0,1,2,4,4
15034.0,1,1,3,2
15035.0,2,3,3,4
15036.0,1,3,4,4
15038.0,2,3,4,1
15039.0,1,1,3,2
15041.0,2,4,4,4
15042.0,4,4,4,1
15043.0,4,1,1,4
15044.0,1,1,3,1
15045.0,4,3,3,1
15046.0,1,1,1,3
15047.0,4,4,2,3
15048.0,2,4,4,3
15049.0,4,4,1,4
15050.0,1,1,1,3
15051.0,1,1,3,3
15052.0,4,4,4,2
15053.0,2,3,2,4
15054.0,1,2,4,4
15057.0,4,2,1,2
15058.0,1,2,4,3
15059.0,1,2,4,2
15060.0,1,1,4,4
15061.0,1,1,1,3
15062.0,3,3,2,4
15063.0,4,4,2,1
15065.0,1,1,3,1
15066.0,1,1,3,1
15067.0,2,2,2,2
15068.0,2,3,4,3
15069.0,2,2,3,1
15070.0,4,4,1,2
15071.0,3,3,2,1
15073.0,2,2,3,3
15074.0,2,2,2,3
15075.0,2,2,1,2
15076.0,2,2,2,2
15078.0,1,1,2,3
15079.0,3,3,3,1
15081.0,3,4,4,1
15083.0,4,4,3,1
15087.0,4,4,1,4
15088.0,1,1,3,1
15089.0,1,1,3,2
15090.0,4,4,3,2
15091.0,2,2,2,4
15092.0,3,4,4,1
15093.0,2,1,1,3
15095.0,3,2,1,3
15096.0,3,3,2,2
15097.0,1,1,3,3
15098.0,4,1,1,1
15099.0,3,2,1,4
15100.0,4,3,1,1
15101.0,4,4,1,3
15103.0,2,2,3,1
15104.0,2,3,3,1
15105.0,1,1,2,3
15106.0,2,2,2,3
15107.0,4,4,2,1
15108.0,2,2,3,1
15109.0,3,3,4,1
15110.0,3,3,3,1
15111.0,2,2,3,2
15113.0,1,1,1,4
15114.0,1,1,1,4
15115.0,2,2,3,2
15116.0,3,2,2,3
15117.0,2,2,1,3
15118.0,4,4,1,4
15119.0,4,4,3,1
15120.0,3,3,2,1
15121.0,3,4,3,1
15122.0,2,2,3,2
15123.0,1,1,2,2
15124.0,4,4,1,4
15125.0,2,1,1,2
15127.0,3,2,1,4
15128.0,2,2,2,4
15129.0,2,1,1,3
15130.0,3,3,3,3
15132.0,3,3,2,4
15133.0,3,3,1,3
15134.0,2,2,2,3
15135.0,4,4,4,2
15136.0,1,1,2,4
15139.0,4,4,1,4
15140.0,2,1,1,3
15142.0,2,2,2,3
15143.0,4,4,2,3
15144.0,1,1,2,3
15145.0,2,2,2,2
15146.0,2,2,1,4
15147.0,3,3,2,2
15148.0,1,1,3,3
15149.0,3,3,4,1
15150.0,1,1,2,2
15152.0,1,1,3,2
15153.0,2,2,3,1
15154.0,1,3,4,2
15156.0,1,1,2,3
15157.0,2,2,1,4
15158.0,3,2,1,4
15159.0,1,1,1,3
15160.0,4,4,1,4
15163.0,3,4,3,3
15164.0,2,3,4,2
15165.0,4,4,4,1
15167.0,3,4,4,3
15168.0,3,3,2,2
15171.0,4,2,1,2
15172.0,2,2,2,4
15174.0,4,4,2,4
15175.0,2,3,1,4
15178.0,4,4,3,4
15179.0,2,2,1,3
15180.0,4,4,4,2
15181.0,4,3,1,4
15182.0,3,3,3,2
15184.0,2,3,4,2
15185.0,2,3,1,3
15186.0,3,3,2,2
15187.0,2,1,1,2
15189.0,1,1,1,1
15192.0,3,3,1,3
15193.0,2,2,3,1
15194.0,1,1,1,3
15195.0,4,1,1,3
15197.0,3,3,2,2
15198.0,4,4,2,4
15199.0,4,2,1,1
15201.0,2,2,1,4
15203.0,2,2,2,4
15204.0,4,4,1,3
15205.0,2,2,2,2
15206.0,4,4,1,3
15208.0,3,3,3,1
15210.0,4,4,2,1
15211.0,3,3,4,1
15212.0,4,4,3,2
15213.0,4,4,2,4
15214.0,2,2,2,3
15215.0,2,2,3,1
15216.0,4,4,2,1
15218.0,1,1,1,2
15219.0,4,4,4,1
15220.0,2,2,2,3
15221.0,4,4,3,1
15222.0,4,3,1,4
15223.0,4,3,2,1
15224.0,4,4,2,2
15225.0,3,4,3,2
15226.0,4,4,3,1
15227.0,3,3,2,1
15228.0,2,1,1,2
15230.0,3,3,1,4
15232.0,3,2,1,4
15234.0,4,4,2,4
15235.0,2,2,3,2
15236.0,4,4,1,4
15237.0,2,2,2,3
15238.0,2,2,2,1
15239.0,1,2,2,4
15240.0,2,2,1,3
15241.0,2,2,1,4
15243.0,2,3,3,3
15244.0,3,3,2,3
15245.0,2,1,1,4
15246.0,3,4,3,2
15247.0,4,3,1,4
15249.0,1,1,2,3
15251.0,2,1,1,1
15252.0,2,3,2,4
15253.0,2,2,1,4
15254.0,3,3,1,4
15255.0,1,1,2,3
15256.0,4,4,3,4
15257.0,4,4,3,1
15258.0,3,3,4,1
15260.0,3,2,2,2
15261.0,3,4,2,4
15262.0,4,4,3,2
15263.0,3,4,3,2
15264.0,2,2,2,3
15265.0,2,2,3,1
15266.0,4,4,4,1
15267.0,4,1,1,4
15269.0,4,1,2,1
15270.0,3,2,1,1
15271.0,1,2,4,3
15272.0,1,2,4,1
15274.0,1,1,2,4
15275.0,1,1,2,2
15276.0,1,4,4,3
15277.0,3,3,1,4
15279.0,4,4,3,1
15280.0,4,4,3,4
15281.0,2,2,3,1
15286.0,4,3,1,1
15287.0,3,2,1,3
15288.0,2,2,3,2
15289.0,2,3,1,4
15290.0,1,1,1,2
15291.0,2,1,1,1
15292.0,3,4,4,1
15296.0,1,1,3,2
15297.0,2,2,3,3
15298.0,1,1,1,3
15299.0,4,1,1,1
15300.0,2,2,2,3
15301.0,1,1,2,2
15303.0,3,3,3,1
15304.0,4,3,4,1
15306.0,2,2,2,3
15307.0,3,3,4,1
15308.0,4,4,3,1
15311.0,1,1,1,3
15312.0,3,3,2,3
15313.0,4,4,1,4
15314.0,3,4,2,4
15315.0,2,2,1,4
15316.0,4,4,1,4
15318.0,1,1,1,4
15319.0,4,4,2,2
15320.0,1,2,3,2
15321.0,2,1,2,2
15322.0,2,2,3,2
15325.0,2,4,4,4
15326.0,4,4,2,4
15327.0,3,3,2,1
15329.0,2,2,3,2
15330.0,3,1,1,4
15332.0,3,2,1,3
15333.0,4,2,1,2
15334.0,1,3,4,4
15335.0,2,3,4,3
15339.0,2,3,4,3
15341.0,3,1,1,2
15342.0,3,3,2,3
15343.0,3,3,4,1
15344.0,2,2,4,1
15345.0,2,2,4,1
15346.0,4,4,3,3
15347.0,4,4,1,3
15348.0,3,4,3,4
15349.0,2,3,4,2
15350.0,4,4,2,3
15351.0,1,2,4,3
15353.0,3,3,4,2
15355.0,3,3,4,1
15356.0,1,2,4,4
15358.0,1,1,2,4
15360.0,3,2,1,3
15361.0,4,4,1,4
15363.0,4,4,3,2
15364.0,3,3,1,4
15365.0,2,2,3,2
15366.0,3,4,2,3
15367.0,2,2,2,2
15368.0,4,1,1,2
15370.0,2,2,3,2
15372.0,3,1,1,4
15373.0,2,2,4,1
15374.0,4,4,1,2
15376.0,1,2,4,3
15379.0,1,1,2,3
15380.0,3,2,2,1
15381.0,4,3,1,1
15382.0,1,1,2,3
15384.0,3,3,2,4
15385.0,3,2,2,3
15386.0,3,3,2,4
15388.0,4,4,3,4
15389.0,4,3,1,4
15392.0,2,2,1,4
15393.0,4,4,2,4
15394.0,2,2,2,2
15395.0,4,4,4,1
15396.0,3,3,3,2
15397.0,4,4,4,1
15398.0,1,1,2,3
15399.0,1,1,2,4
15400.0,4,3,1,4
15402.0,3,3,1,2
15405.0,4,3,1,2
15406.0,3,4,4,2
15407.0,1,3,4,1
15408.0,3,4,4,1
15410.0,2,1,3,1
15411.0,1,2,4,1
15412.0,4,4,2,2
15414.0,3,3,2,2
15415.0,3,3,2,4
15416.0,1,1,2,2
15417.0,2,2,2,4
15419.0,3,3,1,4
15421.0,3,3,3,3
15422.0,4,4,3,2
15423.0,4,4,1,1
15424.0,4,4,1,4
15426.0,1,2,4,3
15427.0,1,1,4,4
15428.0,3,3,1,4
15429.0,1,2,4,4
15432.0,3,3,3,3
15433.0,3,3,2,4
15434.0,2,2,2,2
15435.0,1,3,4,2
15436.0,1,2,4,3
15437.0,3,4,4,3
15438.0,3,4,4,2
15440.0,2,3,4,3
15442.0,4,3,1,1
15443.0,1,1,4,2
15444.0,1,1,4,3
15445.0,4,4,2,1
15447.0,4,4,3,2
15448.0,4,4,3,2
15449.0,2,3,2,4
15450.0,1,2,2,4
15452.0,3,3,4,3
15453.0,1,2,4,3
15454.0,4,4,4,3
15456.0,3,4,2,4
15457.0,3,4,4,4
15458.0,3,3,1,4
15460.0,3,4,4,3
15462.0,4,4,1,4
15463.0,3,3,1,4
15464.0,2,3,4,1
15465.0,2,1,2,1
15466.0,1,3,4,4
15467.0,2,3,4,3
15468.0,2,2,3,1
15469.0,3,2,3,1
15471.0,1,1,4,4
15472.0,1,3,4,3
15473.0,3,1,1,3
15475.0,2,2,2,4
15478.0,1,1,2,2
15480.0,2,2,3,1
15482.0,2,1,1,2
15483.0,2,4,4,4
15484.0,1,1,1,4
15485.0,2,2,1,2
15488.0,4,4,1,1
15489.0,2,2,2,2
15491.0,1,1,2,1
15492.0,2,2,2,3
15493.0,1,2,4,1
15494.0,1,1,3,3
15497.0,4,2,1,2
15498.0,1,1,2,2
15500.0,1,1,3,1
15502.0,1,1,1,1
15503.0,3,4,4,4
15504.0,3,4,4,3
15505.0,1,1,1,3
15506.0,1,2,4,4
15507.0,2,3,4,1
15508.0,2,2,4,2
15510.0,4,4,4,1
15511.0,1,1,4,1
15512.0,4,4,3,4
15513.0,1,1,1,1
15514.0,2,1,2,3
15516.0,3,4,4,3
15517.0,3,4,2,4
15518.0,1,2,4,3
15520.0,1,1,1,4
15521.0,1,1,3,2
15522.0,1,3,2,4
15523.0,3,2,2,2
15524.0,4,1,4,1
15525.0,2,3,4,3
15526.0,4,3,4,1
15527.0,2,2,3,2
15528.0,3,4,4,3
15529.0,1,1,4,4
15530.0,2,2,3,3
15531.0,1,1,4,2
15532.0,1,2,4,1
15533.0,1,2,4,1
15535.0,3,4,4,1
15537.0,3,4,4,1
15539.0,1,1,3,4
15540.0,2,2,2,4
15541.0,3,4,4,4
15543.0,3,4,4,4
15544.0,1,1,2,4
15545.0,3,4,4,3
15547.0,1,1,4,3
15549.0,2,2,3,2
15550.0,3,3,4,3
15551.0,2,2,3,1
15552.0,4,4,4,4
15553.0,1,2,3,3
15554.0,4,4,4,1
15555.0,1,1,4,4
15556.0,1,2,3,4
15557.0,2,1,2,2
15561.0,3,3,3,1
15562.0,4,4,1,2
15563.0,2,2,2,4
15565.0,4,3,3,1
15567.0,3,2,1,2
15568.0,1,1,3,3
15569.0,3,2,1,4
15570.0,1,1,3,2
15571.0,1,2,4,3
15572.0,1,1,4,2
15573.0,1,2,4,3
15574.0,2,3,4,3
15576.0,1,1,3,2
15577.0,3,4,4,2
15578.0,4,4,4,3
15579.0,3,4,4,1
15581.0,2,1,4,1
15582.0,3,3,2,3
15584.0,1,2,4,2
15585.0,3,3,2,3
15587.0,4,3,1,3
15589.0,3,4,3,2
15592.0,2,2,1,4
15593.0,4,3,2,2
15594.0,2,2,3,2
15596.0,3,2,3,1
15597.0,2,2,2,4
15598.0,3,3,2,3
15599.0,2,3,2,4
15601.0,1,1,2,3
15602.0,3,3,1,3
15603.0,4,4,1,4
15604.0,2,3,3,4
15605.0,3,3,3,1
15606.0,2,1,2,2
15607.0,4,4,1,4
15608.0,2,2,2,2
15609.0,4,4,3,1
15610.0,4,4,2,4
15611.0,3,2,2,1
15612.0,4,3,3,1
15615.0,1,1,2,3
15618.0,2,2,2,3
15619.0,4,1,1,1
15620.0,2,2,3,2
15621.0,2,1,1,4
15622.0,1,1,3,1
15623.0,3,3,3,1
15624.0,3,3,2,2
15625.0,2,2,1,4
15626.0,3,3,1,4
15628.0,2,2,2,3
15630.0,2,2,2,3
15632.0,1,1,2,3
15634.0,2,2,3,2
15636.0,4,3,2,2
15637.0,3,3,3,2
15639.0,3,3,2,1
15640.0,1,1,2,3
15641.0,2,2,2,4
15643.0,3,3,3,1
15644.0,1,3,4,4
15645.0,1,1,4,2
15646.0,3,4,2,3
15648.0,4,3,3,1
15649.0,4,3,1,1
15651.0,3,3,1,4
15652.0,3,3,3,1
15653.0,4,2,1,4
15654.0,2,1,1,2
15655.0,3,3,3,2
15656.0,3,3,3,1
15657.0,4,4,1,4
15658.0,3,3,4,1
15659.0,3,2,2,1
15660.0,2,2,2,3
15661.0,4,4,1,4
15663.0,4,4,2,3
15664.0,2,2,3,1
15665.0,2,1,2,3
15667.0,3,2,1,4
15668.0,4,4,1,4
15669.0,3,3,2,2
15670.0,4,4,3,2
15671.0,2,1,1,3
15673.0,2,1,2,3
15674.0,2,1,2,1
15675.0,4,4,1,3
15676.0,1,1,2,2
15677.0,2,1,3,2
15678.0,3,2,1,4
15679.0,1,2,2,4
15680.0,3,3,2,3
15681.0,3,2,1,4
15683.0,4,4,2,4
15687.0,1,1,3,1
15689.0,4,4,3,2
15690.0,3,3,1,4
15691.0,4,4,1,4
15692.0,2,3,2,4
15694.0,3,1,1,1
15695.0,4,4,3,3
15696.0,1,1,4,1
15699.0,2,2,3,1
15700.0,2,3,4,2
15701.0,1,1,4,2
15703.0,4,4,2,2
15704.0,1,1,3,2
15705.0,4,4,2,1
15706.0,2,2,4,1
15707.0,1,1,4,3
15708.0,1,1,4,1
15709.0,4,4,1,3
15712.0,3,3,3,2
15713.0,4,4,3,1
15714.0,2,3,4,2
15716.0,2,3,3,3
15717.0,4,4,3,3
15719.0,1,1,4,4
15720.0,1,1,4,3
15721.0,1,1,4,4
15722.0,2,2,1,2
15723.0,3,4,4,3
15724.0,4,4,3,2
15725.0,1,1,3,3
15727.0,1,1,2,2
15729.0,4,4,4,2
15730.0,2,2,3,2
15732.0,4,4,1,4
15733.0,4,4,3,1
15734.0,3,2,2,1
15737.0,2,2,3,1
15738.0,2,1,1,4
15739.0,3,2,1,3
15740.0,3,3,1,3
15743.0,2,2,4,1
15744.0,4,4,1,4
15745.0,2,2,3,1
15746.0,3,4,3,4
15747.0,1,2,4,3
15748.0,2,3,4,2
15749.0,4,1,1,2
15750.0,1,2,3,3
15752.0,1,2,4,4
15753.0,4,4,1,4
15754.0,3,3,3,3
15755.0,2,2,2,2
15756.0,1,3,4,3
15757.0,3,3,2,3
15758.0,3,2,4,1
15759.0,4,4,3,1
15762.0,2,2,3,1
15763.0,1,1,4,1
15764.0,1,1,2,3
15766.0,3,3,1,2
15768.0,3,3,3,1
15769.0,2,1,1,4
15773.0,2,1,1,4
15774.0,2,3,4,1
15775.0,4,4,3,3
15776.0,3,4,3,1
15777.0,4,3,1,2
15780.0,4,4,3,1
15781.0,4,4,3,1
15782.0,2,1,1,1
15783.0,2,2,1,2
15785.0,2,2,1,2
15786.0,1,1,2,3
15787.0,1,1,4,4
15789.0,4,4,1,4
15790.0,1,2,4,2
15791.0,2,2,3,2
15793.0,4,3,1,2
15795.0,2,3,2,2
15796.0,2,1,3,1
15797.0,4,2,1,1
15799.0,2,3,3,3
15800.0,2,3,4,3
15801.0,1,1,3,2
15802.0,4,3,4,1
15803.0,3,2,1,4
15804.0,1,1,3,2
15805.0,1,1,2,3
15806.0,3,3,1,4
15807.0,1,1,3,3
15808.0,1,1,3,2
15809.0,3,4,3,1
15810.0,2,2,3,3
15811.0,2,2,3,2
15812.0,3,2,1,1
15813.0,3,2,1,2
15814.0,1,1,1,2
15815.0,3,2,1,4
15819.0,2,2,2,4
15820.0,4,4,3,3
15821.0,1,2,4,2
15822.0,3,3,2,2
15823.0,4,4,4,1
15825.0,3,3,2,1
15826.0,2,2,2,2
15827.0,2,2,3,1
15829.0,2,2,1,4
15830.0,1,1,2,3
15831.0,3,3,1,3
15832.0,3,3,3,3
15834.0,1,2,4,1
15835.0,3,3,3,2
15836.0,3,3,4,1
15837.0,2,2,3,1
15838.0,2,1,1,4
15839.0,2,2,2,4
15840.0,3,3,2,4
15841.0,3,3,1,4
15843.0,4,4,4,1
15844.0,3,3,2,4
15845.0,2,1,2,3
15847.0,4,4,1,2
15850.0,1,4,4,4
15852.0,3,4,4,2
15853.0,2,4,4,4
15854.0,2,1,3,2
15855.0,2,3,4,4
15856.0,1,1,1,4
15857.0,2,2,1,4
15858.0,1,2,3,3
15860.0,2,3,4,2
15861.0,1,1,4,4
15862.0,2,3,4,3
15863.0,4,4,4,2
15864.0,4,2,1,3
15865.0,3,2,3,1
15866.0,2,3,4,2
15867.0,1,1,4,2
15869.0,4,4,2,4
15870.0,1,2,4,4
15872.0,1,2,4,4
15874.0,2,1,1,1
15877.0,1,1,4,4
15880.0,2,4,4,3
15881.0,4,4,3,2
15882.0,4,4,2,4
15883.0,1,2,4,2
15885.0,4,4,3,1
15886.0,3,3,2,2
15888.0,3,4,3,3
15889.0,2,4,4,3
15891.0,2,3,3,3
15894.0,3,4,4,4
15895.0,4,4,3,4
15897.0,3,4,2,4
15898.0,2,3,3,2
15899.0,4,4,3,1
15900.0,1,2,4,4
15901.0,1,3,4,4
15903.0,2,1,1,3
15904.0,1,2,4,2
15906.0,1,2,4,2
15907.0,1,2,4,3
15909.0,4,4,2,4
15910.0,1,2,4,4
15912.0,4,4,3,4
15916.0,2,2,4,2
15917.0,4,4,4,1
15918.0,3,4,4,3
15919.0,2,4,4,3
15920.0,2,4,4,4
15921.0,3,3,3,2
15922.0,4,4,2,1
15923.0,4,4,4,3
15925.0,4,4,3,3
15930.0,2,2,3,1
15932.0,2,1,1,4
15933.0,1,1,2,4
15935.0,4,4,3,1
15937.0,4,3,2,3
15938.0,4,4,2,3
15939.0,2,1,1,4
15940.0,4,4,4,1
15942.0,3,3,1,3
15944.0,4,4,3,1
15945.0,4,4,1,3
15947.0,2,1,1,1
15948.0,1,1,3,3
15949.0,3,2,1,4
15950.0,2,2,3,2
15951.0,3,3,3,2
15952.0,2,3,4,2
15953.0,2,2,3,3
15955.0,1,1,2,3
15957.0,1,2,4,3
15958.0,4,4,4,1
15963.0,2,2,2,3
15965.0,2,3,4,3
15967.0,2,4,4,3
15969.0,3,3,3,1
15970.0,4,4,2,3
15971.0,3,1,1,3
15973.0,4,4,1,1
15974.0,1,1,2,3
15975.0,2,3,2,4
15976.0,2,3,4,3
15977.0,1,1,1,2
15978.0,1,1,1,4
15980.0,3,1,1,4
15981.0,2,1,1,3
15983.0,2,2,3,4
15984.0,1,2,3,3
15985.0,3,2,1,4
15986.0,2,3,1,4
15987.0,2,2,2,3
15988.0,1,3,3,2
15990.0,3,3,3,2
15992.0,3,4,4,1
15993.0,1,1,4,3
15994.0,2,2,4,2
15996.0,2,3,4,1
15998.0,1,1,4,3
16000.0,2,1,1,2
16003.0,2,2,2,1
16005.0,1,3,4,3
16006.0,4,4,2,4
16007.0,1,2,4,4
16008.0,3,3,3,4
16009.0,2,2,4,2
16010.0,3,4,4,3
16011.0,1,1,3,4
16012.0,1,1,3,3
16013.0,2,1,1,3
16014.0,2,3,4,3
16015.0,1,1,4,4
16016.0,1,2,4,2
16017.0,2,3,4,3
16018.0,3,3,3,2
16019.0,2,1,2,2
16020.0,1,1,2,3
16022.0,2,3,4,2
16023.0,2,3,4,2
16024.0,1,2,3,4
16025.0,1,2,2,4
16026.0,1,3,3,4
16027.0,4,3,1,1
16029.0,1,1,1,1
16030.0,3,4,3,3
16031.0,2,3,4,3
16033.0,1,1,4,2
16034.0,4,4,2,3
16036.0,3,3,2,4
16037.0,3,3,2,2
16038.0,3,3,3,2
16040.0,2,2,2,1
16041.0,4,1,1,1
16042.0,3,3,2,2
16043.0,3,3,2,1
16045.0,2,2,2,3
16048.0,4,4,1,4
16049.0,1,1,4,4
16050.0,4,4,1,3
16052.0,2,2,3,3
16053.0,1,1,1,3
16054.0,2,2,4,1
16055.0,4,4,4,1
16056.0,1,1,4,2
16057.0,2,2,3,1
16059.0,1,2,4,2
16062.0,3,3,2,3
16063.0,4,4,2,3
16065.0,3,4,4,4
16066.0,1,1,3,2
16070.0,1,1,2,4
16071.0,2,2,3,3
16072.0,4,3,3,1
16073.0,4,4,1,3
16076.0,1,1,2,3
16078.0,4,4,1,1
16079.0,2,1,1,2
16080.0,4,4,2,4
16081.0,1,2,3,3
16083.0,4,3,1,4
16084.0,3,4,4,3
16085.0,1,3,4,3
16086.0,3,3,2,2
16091.0,4,4,3,3
16092.0,3,3,2,4
16093.0,4,4,1,4
16094.0,2,2,2,2
16096.0,4,4,2,1
16097.0,4,4,3,1
16098.0,3,2,3,1
16099.0,3,3,2,4
16101.0,1,1,3,3
16102.0,2,1,1,3
16103.0,3,2,2,1
16104.0,2,3,4,2
16105.0,4,4,1,4
16106.0,4,4,2,4
16107.0,3,1,1,1
16108.0,2,2,2,4
16109.0,4,3,1,4
16110.0,1,2,4,3
16112.0,4,4,1,4
16113.0,3,4,4,3
16114.0,4,4,4,2
16115.0,1,2,4,3
16116.0,3,3,3,1
16117.0,3,4,4,3
16119.0,3,2,1,4
16120.0,2,1,1,4
16121.0,1,3,4,4
16122.0,3,3,1,4
16123.0,3,2,2,2
16124.0,4,4,4,1
16125.0,4,4,3,2
16126.0,2,1,1,2
16127.0,1,1,3,2
16128.0,2,2,2,3
16131.0,2,1,1,2
16133.0,1,1,1,2
16134.0,3,3,2,4
16135.0,4,3,3,2
16136.0,3,3,2,3
16139.0,3,3,2,3
16140.0,3,3,1,4
16141.0,2,2,3,1
16142.0,3,3,2,3
16143.0,2,2,3,1
16144.0,4,4,1,1
16145.0,1,1,2,3
16146.0,3,3,1,4
16147.0,3,3,2,1
16148.0,4,4,1,4
16149.0,3,3,1,4
16150.0,2,2,3,2
16152.0,3,2,1,1
16153.0,2,2,2,2
16156.0,2,1,3,2
16157.0,3,2,1,2
16159.0,4,4,1,4
16160.0,3,1,1,4
16161.0,1,1,4,2
16162.0,4,4,4,1
16163.0,4,3,1,1
16164.0,1,1,2,3
16168.0,2,1,1,2
16169.0,1,1,1,4
16170.0,1,2,2,4
16171.0,4,4,3,2
16172.0,2,2,2,4
16173.0,1,1,3,1
16174.0,3,2,1,2
16175.0,2,2,3,2
16177.0,3,2,3,1
16178.0,4,4,2,2
16179.0,3,3,3,2
16180.0,1,1,1,3
16181.0,3,3,2,3
16182.0,3,1,1,4
16183.0,3,2,3,2
16184.0,3,2,2,1
16185.0,3,3,3,2
16186.0,1,1,2,4
16187.0,1,1,1,4
16188.0,2,2,2,3
16189.0,3,3,2,1
16190.0,3,3,2,1
16191.0,2,1,1,3
16193.0,4,4,2,3
16198.0,3,2,3,1
16200.0,1,2,4,3
16201.0,1,1,2,4
16202.0,4,4,2,2
16203.0,3,4,3,3
16204.0,1,2,4,4
16205.0,1,2,4,3
16206.0,3,4,4,3
16207.0,2,2,3,1
16208.0,2,3,4,2
16209.0,3,1,1,3
16210.0,2,1,1,2
16211.0,3,2,3,2
16212.0,3,3,4,1
16213.0,4,4,3,2
16214.0,3,2,3,1
16215.0,3,3,3,1
16216.0,3,3,3,1
16217.0,4,4,3,1
16218.0,2,1,1,4
16221.0,2,3,3,3
16222.0,2,3,4,2
16224.0,2,2,2,3
16225.0,2,2,4,3
16226.0,4,4,1,4
16227.0,4,4,1,2
16229.0,3,2,3,2
16230.0,3,3,2,4
16232.0,3,2,1,3
16233.0,4,4,3,2
16235.0,3,3,3,1
16236.0,3,2,3,3
16239.0,3,3,2,3
16240.0,1,1,2,1
16241.0,1,2,4,3
16242.0,1,1,3,3
16243.0,1,2,4,1
16244.0,2,2,3,3
16245.0,2,2,2,2
16247.0,4,4,2,3
16248.0,4,3,2,4
16249.0,2,2,2,2
16250.0,4,4,3,2
16253.0,2,1,1,4
16255.0,1,2,3,3
16256.0,4,3,1,3
16257.0,4,4,4,1
16258.0,1,1,1,2
16260.0,2,1,1,1
16261.0,2,3,4,2
16265.0,1,1,2,2
16266.0,2,2,3,1
16268.0,1,2,2,1
16270.0,3,3,2,2
16271.0,2,2,3,4
16272.0,3,3,3,4
16274.0,3,4,4,1
16275.0,3,3,2,1
16276.0,4,2,1,4
16278.0,3,2,4,1
16279.0,1,2,3,4
16281.0,3,1,1,3
16282.0,4,4,2,3
16283.0,1,2,3,3
16284.0,1,1,4,4
16287.0,4,4,1,3
16292.0,3,3,2,3
16293.0,2,2,3,1
16295.0,1,1,2,2
16297.0,4,4,2,3
16298.0,3,3,3,1
16302.0,4,4,2,4
16303.0,1,1,1,3
16305.0,3,3,2,4
16306.0,3,3,2,4
16308.0,4,1,1,4
16309.0,3,3,2,3
16311.0,1,1,2,3
16313.0,3,2,2,2
16315.0,4,4,4,1
16316.0,2,1,3,1
16317.0,2,2,2,2
16318.0,2,2,2,3
16319.0,4,3,1,1
16320.0,2,2,2,3
16321.0,4,4,2,2
16322.0,1,2,3,3
16323.0,4,4,1,1
16324.0,1,3,4,4
16325.0,4,3,2,2
16326.0,1,1,4,1
16327.0,1,1,3,4
16330.0,2,3,4,3
16332.0,1,2,4,3
16333.0,3,1,1,4
16337.0,3,3,3,2
16338.0,4,4,3,2
16339.0,4,4,4,1
16340.0,1,2,4,4
16341.0,2,1,1,4
16342.0,4,4,2,1
16343.0,1,2,4,3
16344.0,4,4,3,1
16345.0,1,1,3,1
16347.0,1,1,4,2
16348.0,1,2,4,3
16349.0,4,4,4,1
16350.0,3,3,3,2
16351.0,4,4,2,4
16352.0,2,1,2,4
16353.0,2,1,1,2
16354.0,2,2,4,2
16356.0,3,4,4,4
16357.0,3,3,3,1
16358.0,1,1,2,4
16359.0,3,2,1,1
16360.0,1,1,4,3
16361.0,1,1,4,2
16362.0,1,2,4,3
16363.0,4,4,2,2
16364.0,2,2,4,2
16365.0,3,2,3,1
16366.0,2,2,2,3
16367.0,2,3,4,3
16368.0,1,1,4,3
16369.0,1,2,3,3
16370.0,1,2,4,3
16372.0,1,2,4,3
16374.0,2,3,4,3
16376.0,1,1,4,3
16377.0,4,3,1,4
16378.0,4,4,2,4
16379.0,1,1,2,4
16380.0,2,1,1,4
16383.0,2,3,4,3
16384.0,3,3,3,2
16385.0,3,4,4,3
16386.0,2,4,4,4
16387.0,4,4,2,2
16389.0,3,2,1,3
16392.0,3,4,4,4
16393.0,1,1,4,4
16394.0,2,2,1,4
16395.0,1,2,3,4
16398.0,2,2,3,1
16399.0,2,4,4,3
16400.0,2,3,4,2
16401.0,1,1,1,4
16402.0,3,4,4,3
16403.0,4,4,2,4
16404.0,2,2,3,1
16405.0,4,4,1,3
16406.0,1,3,4,4
16407.0,1,2,3,2
16409.0,1,2,4,3
16411.0,3,4,4,4
16412.0,2,3,4,4
16413.0,2,3,4,3
16414.0,4,4,4,1
16415.0,1,3,4,4
16416.0,1,1,3,2
16418.0,2,3,4,2
16419.0,3,3,3,1
16422.0,1,1,1,4
16423.0,2,2,2,4
16424.0,4,4,1,1
16425.0,4,4,3,1
16426.0,1,2,4,4
16427.0,4,4,1,4
16429.0,4,3,4,1
16430.0,4,3,1,1
16431.0,2,3,4,4
16432.0,3,3,1,2
16433.0,2,3,3,4
16434.0,2,2,3,2
16438.0,1,2,4,4
16440.0,1,1,3,3
16441.0,4,4,3,2
16442.0,2,3,4,3
16444.0,2,3,4,3
16445.0,1,2,4,3
16446.0,4,1,1,4
16447.0,2,4,3,2
16448.0,3,4,4,2
16449.0,3,3,3,2
16450.0,4,3,1,4
16451.0,3,3,3,3
16454.0,4,4,4,4
16455.0,2,2,3,4
16456.0,2,2,2,4
16457.0,4,4,1,3
16458.0,1,1,2,4
16460.0,1,2,3,4
16461.0,3,4,4,1
16462.0,4,4,4,1
16463.0,2,2,2,4
16464.0,1,1,4,3
16466.0,1,2,4,3
16468.0,4,4,1,1
16469.0,1,3,4,2
16470.0,2,3,4,4
16471.0,4,4,2,3
16473.0,4,4,2,3
16474.0,1,1,4,3
16475.0,3,3,2,1
16477.0,2,2,3,3
16478.0,3,3,2,2
16479.0,1,1,4,2
16480.0,1,2,3,2
16482.0,2,2,1,4
16483.0,3,4,4,1
16484.0,3,3,3,2
16485.0,2,3,4,2
16488.0,3,3,1,1
16491.0,1,1,2,3
16493.0,3,2,1,4
16494.0,3,3,2,4
16495.0,2,3,4,2
16496.0,2,2,2,3
16497.0,2,1,2,2
16498.0,4,4,4,3
16499.0,4,4,3,1
16500.0,4,4,2,1
16503.0,2,2,3,1
16504.0,1,1,3,4
16505.0,4,1,1,4
16506.0,4,4,2,4
16509.0,4,4,4,1
16510.0,4,4,3,1
16511.0,1,3,4,2
16513.0,1,1,2,3
16515.0,2,2,3,3
16516.0,3,3,3,4
16517.0,4,4,4,3
16518.0,3,4,3,3
16519.0,4,4,4,1
16520.0,2,3,4,3
16523.0,1,1,1,2
16525.0,1,1,1,2
16526.0,4,4,3,1
16527.0,3,3,3,2
16528.0,1,1,2,2
16529.0,3,3,3,2
16531.0,3,3,2,3
16532.0,4,1,1,2
16533.0,1,1,4,3
16535.0,1,1,2,2
16536.0,2,2,4,2
16539.0,3,3,2,1
16542.0,4,4,3,2
16545.0,4,3,1,2
16546.0,4,3,1,4
16549.0,1,1,4,4
16550.0,1,2,3,3
16551.0,3,3,1,4
16552.0,4,4,2,1
16553.0,2,1,1,4
16554.0,3,3,3,2
16555.0,3,3,2,3
16556.0,1,1,3,1
16557.0,4,3,2,1
16558.0,1,1,2,2
16560.0,3,3,3,1
16561.0,2,2,3,3
16563.0,2,1,1,2
16565.0,4,4,1,1
16566.0,4,3,1,3
16567.0,3,3,1,4
16569.0,3,2,1,3
16570.0,2,1,1,2
16571.0,2,2,2,4
16572.0,3,3,3,2
16573.0,3,3,3,2
16574.0,2,2,1,4
16581.0,4,4,1,4
16582.0,4,3,1,4
16583.0,4,4,3,3
16584.0,3,3,1,3
16586.0,4,3,2,1
16587.0,4,4,4,1
16589.0,3,3,2,4
16591.0,3,3,4,1
16592.0,1,1,2,4
16593.0,4,4,4,1
16594.0,1,3,4,2
16595.0,1,2,4,4
16596.0,4,4,3,1
16597.0,2,3,1,4
16598.0,4,4,3,3
16600.0,3,3,1,4
16601.0,2,2,4,2
16602.0,2,1,2,3
16603.0,2,2,2,4
16607.0,1,1,1,1
16609.0,1,1,3,2
16610.0,4,4,2,4
16611.0,4,4,4,2
16612.0,3,3,3,2
16613.0,2,2,3,3
16614.0,3,3,3,1
16616.0,3,3,2,3
16617.0,4,4,1,1
16618.0,2,1,2,2
16619.0,4,4,3,3
16620.0,4,4,3,3
16621.0,3,3,2,1
16623.0,4,4,3,2
16624.0,2,2,2,2
16625.0,4,4,3,3
16626.0,1,1,1,1
16627.0,3,3,3,1
16628.0,1,1,2,3
16629.0,1,3,3,3
16633.0,1,1,3,1
16634.0,4,4,3,1
16637.0,2,2,2,3
16638.0,2,2,2,2
16639.0,3,2,2,2
16641.0,3,3,1,4
16642.0,3,3,2,2
16643.0,3,3,3,2
16644.0,2,3,2,4
16647.0,4,4,2,2
16648.0,2,2,1,4
16650.0,2,2,1,3
16652.0,2,1,1,1
16653.0,1,1,2,2
16654.0,4,4,3,1
16655.0,1,1,3,3
16656.0,3,1,1,4
16657.0,1,3,4,4
16658.0,4,4,4,2
16659.0,4,4,1,4
16660.0,4,2,1,3
16665.0,4,4,3,1
16666.0,1,3,3,4
16667.0,3,3,4,2
16668.0,4,4,1,4
16669.0,1,1,4,3
16670.0,1,1,2,2
16671.0,4,1,1,3
16672.0,2,1,1,2
16674.0,1,3,4,4
16676.0,2,2,3,1
16678.0,1,1,1,4
16679.0,4,4,3,1
16680.0,3,3,3,2
16681.0,3,2,1,4
16682.0,3,2,1,4
16684.0,1,1,1,3
16685.0,1,2,3,3
16686.0,1,1,4,3
16688.0,1,1,2,3
16689.0,3,2,1,2
16690.0,4,4,2,2
16692.0,4,2,1,1
16693.0,3,3,4,1
16696.0,4,3,2,1
16697.0,4,4,4,1
16698.0,4,2,1,3
16700.0,1,1,2,4
16701.0,2,1,1,4
16705.0,1,1,1,1
16706.0,1,2,4,3
16708.0,2,1,2,2
16709.0,2,1,2,1
16710.0,1,2,4,3
16711.0,4,2,1,2
16712.0,1,1,4,2
16713.0,1,1,3,2
16714.0,2,3,3,2
16715.0,3,3,1,4
16716.0,4,3,1,1
16717.0,1,1,3,2
16718.0,3,4,3,3
16719.0,1,2,4,1
16720.0,2,3,3,3
16721.0,3,4,4,3
16722.0,1,1,1,4
16723.0,2,2,3,1
16725.0,2,3,4,2
16726.0,1,3,4,4
16727.0,3,4,4,4
16728.0,1,2,4,3
16729.0,1,1,3,4
16730.0,2,3,2,4
16732.0,1,1,2,2
16734.0,2,2,3,2
16735.0,2,2,2,3
16737.0,4,2,1,4
16738.0,4,4,4,4
16739.0,4,3,2,3
16742.0,4,2,4,1
16743.0,1,2,2,4
16744.0,1,2,4,3
16745.0,1,1,1,4
16746.0,1,1,2,3
16747.0,2,1,2,3
16748.0,3,2,2,4
16750.0,2,3,4,2
16751.0,2,1,1,4
16752.0,4,4,4,1
16753.0,2,3,4,4
16754.0,4,2,1,4
16755.0,1,2,3,3
16756.0,4,4,3,2
16757.0,4,4,2,4
16758.0,2,2,3,1
16759.0,1,1,2,2
16761.0,3,3,1,4
16762.0,2,2,3,2
16763.0,3,3,2,1
16764.0,1,1,4,3
16765.0,4,4,4,1
16766.0,3,2,1,3
16767.0,1,1,1,4
16768.0,3,3,4,1
16769.0,3,4,4,1
16770.0,2,3,4,3
16771.0,1,2,4,3
16773.0,2,3,3,3
16774.0,2,3,3,3
16775.0,2,2,4,1
16776.0,1,2,4,4
16777.0,3,4,4,2
16778.0,4,4,2,3
16779.0,1,1,1,3
16780.0,3,4,4,3
16781.0,4,4,3,1
16782.0,1,2,4,2
16784.0,4,3,3,1
16788.0,1,3,4,3
16789.0,3,3,3,3
16790.0,1,1,3,3
16791.0,1,2,4,2
16792.0,4,4,4,1
16793.0,3,3,3,3
16794.0,1,2,4,4
16795.0,3,4,4,4
16796.0,3,3,2,4
16800.0,1,1,4,2
16801.0,2,2,3,1
16803.0,2,3,2,4
16804.0,3,3,4,2
16805.0,2,4,4,4
16806.0,2,3,4,3
16807.0,2,2,2,3
16808.0,4,4,3,3
16809.0,1,3,4,4
16810.0,4,4,3,2
16811.0,1,1,1,3
16812.0,4,4,4,1
16813.0,1,2,4,4
16814.0,1,1,3,2
16816.0,4,4,3,3
16817.0,2,2,3,2
16818.0,1,1,2,3
16820.0,2,2,2,2
16823.0,3,4,4,2
16824.0,3,3,3,2
16825.0,3,2,1,2
16826.0,2,2,3,1
16828.0,4,4,3,2
16829.0,4,4,3,2
16830.0,2,2,2,4
16832.0,4,4,4,1
16833.0,3,3,3,2
16834.0,3,3,1,4
16835.0,4,4,3,1
16836.0,4,3,1,4
16837.0,1,1,3,1
16838.0,4,3,3,1
16839.0,1,1,1,2
16841.0,2,2,1,4
16842.0,3,2,2,2
16843.0,1,1,1,4
16846.0,3,3,2,3
16847.0,3,3,3,2
16848.0,3,3,2,4
16849.0,4,4,4,1
16850.0,4,4,2,4
16851.0,2,2,2,4
16852.0,4,4,3,1
16855.0,2,2,3,2
16856.0,4,4,4,2
16858.0,4,4,3,1
16859.0,3,3,1,3
16861.0,4,4,1,4
16863.0,4,4,1,4
16866.0,4,4,4,2
16869.0,1,2,4,3
16871.0,1,1,3,2
16872.0,4,3,1,1
16873.0,1,1,2,2
16875.0,2,2,3,2
16877.0,1,2,4,3
16878.0,4,4,4,4
16880.0,1,2,4,2
16881.0,4,2,1,4
16882.0,3,3,2,3
16883.0,3,4,4,2
16884.0,2,2,2,4
16885.0,2,4,4,2
16887.0,1,3,4,4
16889.0,2,2,3,2
16891.0,1,3,4,2
16892.0,1,3,4,2
16893.0,3,4,4,3
16895.0,1,3,4,3
16897.0,3,4,4,1
16898.0,2,4,4,4
16899.0,2,3,4,2
16900.0,1,1,2,4
16902.0,2,1,2,1
16903.0,1,2,4,3
16904.0,1,1,4,3
16905.0,1,1,3,2
16906.0,2,3,4,2
16907.0,2,3,4,2
16909.0,3,2,1,2
16910.0,1,1,4,4
16912.0,2,2,2,1
16913.0,4,4,2,4
16914.0,1,3,4,3
16915.0,3,3,4,1
16916.0,2,4,4,3
16917.0,4,4,1,1
16918.0,2,3,4,4
16919.0,1,2,4,3
16921.0,1,3,4,4
16923.0,1,1,4,2
16924.0,1,2,4,3
16926.0,4,4,4,1
16927.0,4,4,1,3
16928.0,1,2,2,4
16929.0,2,2,2,4
16930.0,1,2,3,4
16931.0,1,1,4,4
16932.0,1,3,4,4
16933.0,3,3,3,3
16934.0,1,1,3,1
16936.0,1,2,4,4
16938.0,1,1,2,3
16940.0,1,1,3,4
16942.0,1,2,4,2
16943.0,3,3,4,1
16945.0,1,1,2,3
16947.0,4,4,1,3
16948.0,4,4,1,4
16949.0,3,2,2,1
16950.0,3,3,1,2
16951.0,2,2,1,4
16952.0,3,4,4,1
16953.0,4,4,3,4
16954.0,3,2,1,2
16955.0,4,4,2,1
16956.0,2,2,3,1
16957.0,4,4,2,2
16959.0,4,4,3,2
16960.0,2,3,4,4
16961.0,3,3,3,3
16963.0,4,4,4,2
16965.0,3,4,2,3
16966.0,3,1,1,4
16967.0,3,4,1,4
16968.0,2,3,2,3
16969.0,3,3,1,3
16971.0,1,2,4,1
16976.0,4,4,1,1
16978.0,2,3,4,2
16979.0,2,2,3,2
16980.0,2,3,3,3
16982.0,2,2,3,3
16983.0,2,2,3,3
16984.0,1,1,4,2
16985.0,2,1,1,1
16986.0,4,1,1,4
16987.0,1,2,4,1
16988.0,3,3,3,1
16989.0,4,2,1,4
16990.0,4,4,1,4
16992.0,2,2,3,2
16996.0,3,2,1,2
16997.0,4,3,1,4
16998.0,4,4,1,1
16999.0,2,2,2,3
17001.0,2,1,2,2
17002.0,3,2,2,2
17004.0,2,1,1,3
17006.0,2,1,3,2
17007.0,3,3,2,2
17010.0,2,2,2,3
17011.0,2,2,2,4
17014.0,1,2,4,2
17015.0,1,1,3,4
17017.0,1,1,1,4
17018.0,4,3,2,1
17019.0,1,3,4,4
17022.0,3,4,1,4
17024.0,4,4,1,4
17025.0,4,4,1,4
17026.0,4,4,1,1
17027.0,2,3,4,3
17029.0,4,3,1,4
17030.0,3,3,2,3
17031.0,3,3,2,4
17033.0,4,3,1,3
17034.0,3,3,2,2
17035.0,4,4,3,2
17037.0,1,1,3,3
17038.0,2,3,4,1
17040.0,3,3,2,2
17041.0,3,3,2,4
17042.0,2,2,2,4
17043.0,2,2,3,2
17044.0,3,1,1,3
17045.0,4,4,4,1
17046.0,3,3,1,4
17047.0,2,2,3,2
17048.0,3,3,2,2
17049.0,1,1,3,1
17050.0,1,1,4,3
17051.0,3,4,4,4
17052.0,1,2,4,4
17053.0,4,3,3,1
17054.0,2,2,3,1
17058.0,2,2,3,2
17059.0,1,1,4,3
17060.0,4,4,1,4
17061.0,2,1,1,1
17062.0,3,4,3,4
17063.0,2,2,3,3
17064.0,3,3,4,2
17068.0,1,1,3,3
17069.0,2,2,2,3
17070.0,2,3,4,3
17071.0,2,2,3,2
17073.0,1,1,4,2
17075.0,2,3,4,1
17076.0,4,3,2,1
17078.0,2,2,1,4
17079.0,4,4,2,1
17080.0,4,4,1,2
17081.0,1,2,4,1
17082.0,2,2,2,1
17083.0,3,2,1,4
17084.0,1,1,2,3
17085.0,1,2,4,3
17086.0,1,1,1,4
17088.0,2,2,3,2
17090.0,3,2,1,3
17091.0,1,1,3,2
17092.0,2,2,3,3
17094.0,4,4,2,4
17095.0,3,2,3,2
17096.0,3,3,3,1
17097.0,1,3,4,3
17100.0,1,1,2,4
17101.0,3,1,1,3
17102.0,4,4,4,1
17105.0,2,3,3,4
17107.0,1,1,2,2
17109.0,1,3,4,3
17110.0,4,4,4,1
17111.0,2,3,3,4
17114.0,2,3,4,1
17115.0,3,3,3,1
17117.0,4,4,3,1
17118.0,4,4,1,4
17119.0,2,2,3,2
17120.0,4,4,3,1
17122.0,4,4,2,4
17123.0,4,3,1,4
17124.0,3,4,4,2
17125.0,2,3,3,2
17126.0,1,3,4,4
17128.0,4,4,4,1
17131.0,1,1,3,2
17133.0,3,1,1,4
17134.0,4,4,4,1
17135.0,3,3,1,1
17138.0,4,4,4,1
17139.0,1,1,2,2
17140.0,4,3,1,3
17142.0,4,3,4,1
17144.0,2,1,2,1
17146.0,3,3,3,1
17147.0,2,2,2,2
17148.0,3,4,3,4
17152.0,4,2,1,2
17153.0,2,2,3,3
17154.0,2,3,1,4
17155.0,3,4,2,3
17157.0,4,4,2,3
17158.0,3,3,2,2
17159.0,1,1,2,3
17160.0,1,1,2,4
17162.0,2,2,3,2
17163.0,4,3,2,1
17164.0,1,1,2,3
17165.0,4,4,3,2
17166.0,4,4,3,2
17169.0,2,2,3,3
17171.0,4,4,2,3
17172.0,3,3,1,4
17173.0,1,1,2,2
17174.0,4,4,2,4
17175.0,3,2,2,1
17176.0,4,4,2,3
17179.0,3,3,4,3
17180.0,2,3,4,4
17181.0,4,4,2,2
17183.0,1,1,1,1
17186.0,4,3,1,4
17187.0,4,4,2,2
17188.0,2,2,1,3
17189.0,3,4,4,3
17190.0,4,3,3,1
17191.0,1,2,4,3
17193.0,3,1,1,3
17194.0,4,4,4,1
17197.0,1,1,3,1
17198.0,2,3,4,3
17201.0,1,3,3,4
17203.0,1,1,1,4
17204.0,3,2,2,1
17205.0,3,2,1,4
17206.0,3,3,2,3
17211.0,1,2,3,2
17212.0,4,4,1,4
17213.0,2,2,3,1
17214.0,2,3,4,1
17217.0,4,4,4,2
17218.0,1,2,4,3
17219.0,2,3,4,4
17220.0,1,1,4,3
17221.0,1,2,4,4
17222.0,2,3,4,2
17223.0,3,4,4,1
17226.0,4,4,1,3
17227.0,3,3,1,4
17228.0,1,2,3,4
17229.0,2,3,4,4
17230.0,3,1,1,2
17231.0,1,1,4,3
17232.0,1,1,4,3
17233.0,2,3,4,3
17234.0,4,4,4,2
17235.0,4,4,3,2
17236.0,2,3,4,3
17237.0,2,2,4,2
17238.0,1,1,4,3
17239.0,4,4,3,1
17242.0,3,2,1,4
17243.0,1,1,3,1
17244.0,2,1,1,4
17245.0,4,4,3,3
17247.0,1,2,4,2
17248.0,1,3,4,4
17250.0,3,4,4,2
17251.0,3,4,4,2
17252.0,2,3,4,3
17253.0,2,2,4,1
17254.0,1,2,4,4
17255.0,2,4,4,4
17256.0,4,4,3,3
17259.0,2,4,4,3
17262.0,4,3,1,1
17263.0,3,4,4,4
17265.0,1,3,4,3
17266.0,2,3,4,3
17267.0,2,3,4,2
17268.0,4,3,1,4
17272.0,2,2,1,4
17274.0,2,3,4,4
17277.0,3,3,3,2
17278.0,4,4,2,1
17279.0,3,3,4,1
17282.0,2,2,1,3
17284.0,1,2,4,4
17286.0,1,3,4,4
17287.0,2,3,4,2
17288.0,2,2,3,3
17289.0,1,2,4,3
17290.0,1,1,4,3
17291.0,4,3,1,1
17293.0,2,2,3,3
17295.0,1,2,4,3
17297.0,1,3,4,3
17298.0,3,3,2,4
17299.0,2,3,2,4
17301.0,1,3,4,4
17302.0,2,3,3,3
17303.0,3,4,4,2
17306.0,3,1,1,4
17309.0,3,4,4,2
17311.0,3,2,1,2
17312.0,4,3,1,3
17313.0,2,1,1,4
17314.0,2,1,2,3
17315.0,1,1,3,3
17317.0,4,1,1,2
17320.0,3,3,3,2
17321.0,1,2,4,3
17323.0,1,3,4,4
17324.0,3,3,1,3
17325.0,4,4,3,4
17329.0,3,4,4,1
17330.0,4,2,1,1
17331.0,4,4,1,1
17333.0,2,2,2,4
17334.0,4,4,1,4
17337.0,1,2,4,3
17338.0,1,1,4,3
17339.0,4,4,1,2
17340.0,1,1,2,2
17341.0,2,3,4,4
17343.0,4,4,4,1
17344.0,2,3,4,3
17345.0,2,3,4,3
17346.0,1,2,4,3
17347.0,4,3,1,4
17348.0,1,2,3,4
17349.0,4,4,2,2
17350.0,1,1,2,3
17351.0,3,3,4,1
17353.0,4,1,1,4
17354.0,3,1,1,4
17356.0,4,4,3,4
17357.0,1,2,4,2
17358.0,3,4,4,3
17359.0,2,3,2,4
17360.0,1,3,4,3
17361.0,3,4,4,1
17362.0,3,4,4,2
17364.0,1,1,3,3
17365.0,1,1,2,4
17367.0,3,4,4,4
17368.0,2,2,2,3
17370.0,3,3,1,4
17371.0,2,4,4,2
17372.0,1,3,4,3
17373.0,3,3,3,4
17374.0,3,3,4,1
17375.0,3,4,4,3
17376.0,4,4,4,2
17377.0,1,1,4,3
17379.0,1,1,3,4
17381.0,2,1,1,4
17382.0,4,4,2,1
17383.0,1,2,4,4
17384.0,4,4,4,2
17385.0,1,2,4,4
17386.0,3,1,1,4
17387.0,1,1,3,3
17388.0,4,2,1,1
17389.0,1,1,1,1
17391.0,4,3,1,4
17392.0,3,4,4,2
17394.0,4,4,1,2
17396.0,4,1,1,1
17397.0,1,1,4,2
17398.0,3,3,3,1
17400.0,1,2,4,2
17402.0,3,2,2,1
17403.0,1,2,4,2
17404.0,1,1,1,4
17405.0,1,2,3,2
17406.0,2,2,3,1
17408.0,4,4,4,1
17409.0,4,3,3,1
17410.0,2,2,3,2
17411.0,3,3,3,1
17412.0,3,3,2,3
17414.0,4,2,1,4
17415.0,3,2,3,1
17416.0,1,1,1,3
17418.0,3,4,3,2
17419.0,1,1,3,1
17420.0,4,4,3,1
17422.0,2,2,1,4
17423.0,3,3,1,3
17425.0,1,1,3,3
17426.0,1,1,2,2
17427.0,4,4,1,1
17428.0,1,1,1,2
17429.0,3,3,1,4
17430.0,4,4,2,4
17431.0,3,4,3,4
17432.0,1,2,4,3
17433.0,1,3,4,3
17434.0,1,1,2,3
17436.0,4,4,3,3
17438.0,4,4,3,1
17440.0,4,4,1,4
17442.0,2,2,2,3
17443.0,4,3,1,4
17444.0,1,1,1,1
17446.0,4,4,1,4
17447.0,2,2,2,4
17449.0,1,2,4,2
17450.0,1,1,1,2
17451.0,1,1,2,3
17453.0,3,2,2,2
17454.0,3,4,4,3
17455.0,4,4,3,3
17456.0,4,4,2,4
17457.0,4,2,1,2
17458.0,1,2,4,3
17459.0,1,2,4,4
17460.0,4,4,3,1
17461.0,1,1,3,3
17462.0,3,3,3,1
17463.0,1,2,4,3
17464.0,4,4,1,3
17466.0,2,2,3,1
17468.0,3,3,1,4
17469.0,2,1,3,2
17470.0,3,3,1,4
17472.0,1,3,4,4
17475.0,3,3,2,4
17480.0,2,2,2,4
17481.0,1,1,2,3
17483.0,3,3,3,2
17486.0,3,4,3,3
17489.0,3,4,1,4
17490.0,2,1,1,2
17491.0,2,1,1,2
17492.0,4,4,2,2
17495.0,2,2,3,2
17496.0,4,4,3,1
17498.0,3,3,1,4
17499.0,3,3,1,4
17500.0,3,1,4,1
17501.0,4,4,3,2
17502.0,1,1,2,3
17503.0,1,1,2,3
17504.0,2,1,2,2
17505.0,2,2,2,2
17506.0,3,3,3,2
17507.0,2,3,4,3
17508.0,4,4,2,4
17509.0,1,1,3,3
17510.0,2,2,2,3
17511.0,1,1,1,3
17512.0,2,1,1,4
17513.0,4,2,1,3
17514.0,2,4,4,3
17515.0,2,3,4,2
17516.0,2,3,4,3
17517.0,4,4,3,3
17519.0,2,2,1,2
17520.0,2,2,2,2
17521.0,3,3,2,4
17522.0,2,2,2,4
17523.0,1,1,1,2
17524.0,4,4,1,4
17525.0,4,4,3,1
17526.0,4,3,1,1
17527.0,3,2,2,2
17528.0,1,1,3,2
17530.0,1,2,4,3
17531.0,4,4,3,1
17534.0,3,3,2,3
17535.0,4,4,2,4
17536.0,4,4,4,1
17537.0,2,3,3,3
17538.0,3,3,1,4
17540.0,4,3,3,2
17542.0,3,4,4,3
17545.0,1,1,4,3
17548.0,4,4,2,3
17549.0,4,3,1,4
17550.0,3,4,4,2
17551.0,3,4,4,3
17552.0,3,3,1,3
17553.0,4,1,1,2
17554.0,1,1,1,2
17555.0,2,4,4,4
17556.0,4,4,1,1
17557.0,2,2,3,3
17560.0,4,3,1,2
17561.0,1,3,4,4
17562.0,2,2,2,4
17564.0,1,2,4,2
17566.0,1,1,4,3
17567.0,2,1,1,3
17569.0,4,4,4,2
17571.0,1,2,4,3
17572.0,4,4,3,2
17573.0,3,3,2,4
17574.0,4,4,3,2
17576.0,1,1,4,2
17578.0,4,4,1,4
17579.0,2,3,4,3
17580.0,3,4,4,4
17581.0,1,1,2,2
17582.0,3,4,4,4
17584.0,2,1,2,1
17585.0,1,3,3,4
17588.0,3,2,1,1
17589.0,1,1,3,4
17590.0,1,1,4,3
17591.0,2,2,3,2
17593.0,1,1,2,3
17594.0,3,3,2,4
17595.0,1,2,4,3
17596.0,1,2,1,4
17597.0,2,1,1,2
17600.0,2,3,2,2
17601.0,4,4,2,4
17602.0,1,1,3,4
17603.0,3,2,3,1
17604.0,3,4,4,3
17608.0,1,3,4,4
17609.0,1,3,4,3
17611.0,1,1,4,3
17612.0,2,2,2,3
17613.0,1,1,3,3
17614.0,1,2,4,3
17615.0,4,4,3,1
17616.0,4,4,1,3
17618.0,3,3,4,1
17619.0,2,4,4,4
17620.0,4,4,1,3
17621.0,4,2,1,2
17623.0,1,1,3,3
17624.0,3,3,2,2
17625.0,1,2,4,3
17628.0,4,4,1,3
17629.0,2,2,2,4
17630.0,3,3,3,1
17631.0,3,3,3,2
17633.0,1,1,3,3
17634.0,1,2,4,2
17636.0,2,2,3,3
17637.0,2,2,3,2
17639.0,4,4,3,1
17640.0,4,2,1,3
17642.0,3,3,2,3
17643.0,4,4,3,1
17644.0,1,1,2,3
17646.0,3,3,3,1
17647.0,4,4,4,1
17648.0,2,2,4,1
17649.0,2,2,3,2
17650.0,3,3,1,4
17651.0,1,1,2,4
17652.0,1,1,3,2
17653.0,2,1,1,1
17654.0,4,4,4,2
17655.0,2,2,2,1
17656.0,1,1,1,3
17658.0,4,3,1,3
17659.0,2,1,3,1
17660.0,2,4,4,4
17663.0,2,2,3,1
17664.0,3,3,2,4
17666.0,3,1,1,4
17667.0,2,2,3,2
17668.0,2,2,3,1
17669.0,2,1,1,4
17670.0,4,4,3,3
17671.0,3,2,2,2
17672.0,2,1,1,2
17673.0,1,2,3,4
17674.0,4,4,1,4
17675.0,1,1,2,2
17676.0,3,3,2,4
17677.0,1,1,1,3
17678.0,4,4,2,3
17679.0,2,1,1,1
17680.0,3,3,3,3
17682.0,2,2,2,3
17684.0,2,3,3,3
17685.0,2,1,1,4
17686.0,1,1,3,1
17690.0,1,1,3,1
17691.0,4,4,3,2
17692.0,3,3,2,4
17693.0,3,4,2,4
17694.0,3,3,2,3
17695.0,3,2,1,4
17696.0,2,2,1,3
17697.0,4,4,4,1
17698.0,4,4,2,4
17700.0,1,1,3,2
17701.0,3,4,4,1
17702.0,2,1,1,4
17703.0,2,2,2,4
17704.0,3,3,2,1
17705.0,2,2,3,2
17706.0,1,1,2,1
17707.0,4,4,1,4
17708.0,3,4,4,2
17709.0,4,4,4,1
17711.0,4,4,2,3
17712.0,2,2,3,1
17714.0,4,4,3,4
17715.0,4,4,1,4
17716.0,1,1,2,3
17718.0,4,4,2,1
17719.0,1,1,3,1
17720.0,3,3,2,1
17722.0,2,2,2,2
17723.0,4,1,1,1
17724.0,2,2,3,1
17725.0,1,1,2,3
17727.0,1,1,3,2
17728.0,1,1,3,2
17730.0,1,1,1,4
17731.0,2,2,3,1
17732.0,4,4,4,1
17733.0,3,3,2,2
17734.0,3,3,3,3
17735.0,1,1,2,4
17736.0,3,3,3,1
17737.0,3,3,2,3
17738.0,2,2,2,2
17739.0,3,2,1,1
17742.0,4,4,4,1
17744.0,2,2,1,4
17746.0,4,4,4,1
17747.0,4,4,2,1
17749.0,3,3,3,1
17750.0,1,1,1,4
17752.0,4,4,1,4
17754.0,2,2,1,4
17757.0,1,1,4,3
17758.0,1,1,4,3
17759.0,1,2,3,3
17760.0,4,4,3,3
17761.0,2,1,1,2
17763.0,4,4,2,4
17764.0,2,3,4,2
17765.0,3,4,4,1
17767.0,1,2,3,3
17768.0,1,1,2,2
17769.0,1,1,3,2
17770.0,3,2,3,1
17771.0,3,4,4,3
17772.0,1,2,4,2
17774.0,1,2,4,2
17775.0,4,4,1,4
17777.0,1,2,4,4
17779.0,1,2,4,3
17781.0,4,4,4,1
17783.0,2,4,4,4
17785.0,3,3,4,3
17786.0,3,4,4,4
17787.0,2,2,3,3
17788.0,4,2,1,1
17789.0,4,4,4,1
17790.0,1,2,4,2
17791.0,3,3,4,3
17793.0,1,2,4,2
17795.0,3,4,3,4
17796.0,3,3,4,1
17797.0,1,2,4,3
17799.0,1,1,4,3
17800.0,2,3,3,4
17802.0,2,3,4,3
17805.0,3,2,1,3
17806.0,1,1,1,4
17809.0,3,1,1,3
17811.0,1,1,4,3
17812.0,2,3,4,2
17813.0,1,1,4,2
17816.0,4,4,4,4
17817.0,3,4,4,1
17819.0,3,1,1,1
17824.0,3,2,1,4
17827.0,1,2,4,3
17828.0,2,1,3,1
17829.0,3,3,1,3
17830.0,4,4,4,1
17831.0,4,4,4,2
17832.0,1,3,4,4
17835.0,1,2,4,4
17836.0,2,4,4,4
17837.0,1,1,4,2
17838.0,2,2,1,1
17839.0,1,2,4,4
17841.0,1,1,4,3
17843.0,3,4,4,2
17844.0,4,4,2,4
17846.0,4,1,4,1
17848.0,3,3,3,1
17849.0,4,3,4,1
17850.0,1,1,4,1
17852.0,1,3,4,3
17854.0,4,4,4,2
17855.0,4,4,2,4
17856.0,4,2,1,2
17857.0,3,1,1,1
17858.0,1,1,2,1
17859.0,4,4,4,4
17860.0,3,4,4,3
17861.0,1,2,3,3
17862.0,4,4,3,1
17863.0,2,1,1,4
17864.0,2,3,3,4
17865.0,1,1,1,3
17866.0,4,3,1,2
17867.0,2,2,3,3
17869.0,3,4,4,1
17870.0,1,2,4,3
17871.0,4,4,1,4
17873.0,3,2,1,1
17874.0,3,3,4,1
17877.0,4,4,3,2
17878.0,2,2,1,3
17879.0,4,4,3,2
17880.0,4,4,2,3
17881.0,4,4,4,1
17883.0,1,3,4,3
17884.0,2,3,3,4
17885.0,1,2,4,4
17886.0,2,3,4,2
17887.0,4,4,4,1
17888.0,3,3,1,2
17889.0,4,4,4,2
17890.0,2,4,4,3
17891.0,3,4,2,4
17892.0,3,4,4,2
17893.0,4,4,3,3
17894.0,1,3,4,3
17895.0,3,4,3,4
17896.0,4,2,1,4
17897.0,2,4,4,2
17898.0,3,4,3,4
17899.0,3,4,4,3
17900.0,4,4,2,2
17901.0,2,3,4,1
17904.0,1,2,4,2
17905.0,3,3,2,1
17906.0,4,4,4,2
17908.0,3,4,4,3
17911.0,1,1,4,4
17912.0,3,4,4,1
17913.0,3,4,4,3
17914.0,1,1,3,4
17917.0,2,4,4,3
17919.0,3,1,1,4
17920.0,1,1,4,3
17921.0,1,3,4,3
17923.0,4,4,1,1
17924.0,4,2,1,2
17925.0,4,4,1,2
17926.0,3,3,2,2
17928.0,3,4,3,2
17929.0,4,3,1,1
17930.0,3,2,1,4
17931.0,2,4,4,2
17932.0,2,2,3,3
17934.0,2,1,1,2
17935.0,3,4,4,4
17936.0,1,1,4,3
17937.0,3,1,1,2
17939.0,4,4,4,3
17940.0,4,1,1,1
17941.0,4,3,1,4
17942.0,4,3,1,4
17946.0,4,4,4,2
17947.0,3,3,1,4
17948.0,4,3,1,3
17949.0,3,1,1,2
17950.0,3,4,4,3
17951.0,4,3,1,3
17954.0,1,2,4,4
17955.0,4,3,2,1
17956.0,4,4,4,1
17957.0,2,4,3,4
17958.0,4,3,2,1
17960.0,3,4,4,4
17961.0,1,3,4,2
17962.0,3,4,4,4
17964.0,2,4,4,3
17965.0,1,2,4,2
17966.0,2,2,1,4
17967.0,3,4,4,4
17968.0,3,4,4,4
17969.0,4,4,2,1
17970.0,3,3,1,2
17972.0,3,4,4,1
17973.0,3,2,2,2
17974.0,1,3,4,4
17975.0,1,1,4,2
17976.0,3,4,4,2
17977.0,2,2,1,2
17978.0,4,4,1,3
17979.0,1,3,4,3
17980.0,4,3,1,4
17984.0,2,4,4,4
17985.0,2,1,3,1
17986.0,4,4,3,4
17987.0,4,4,1,4
17988.0,3,4,4,1
17990.0,4,3,2,3
17991.0,4,4,4,1
17994.0,2,3,3,3
17995.0,4,4,1,4
17997.0,1,1,2,4
17999.0,2,4,4,3
18001.0,1,2,3,3
18004.0,3,4,4,3
18005.0,1,3,4,2
18006.0,2,1,3,2
18008.0,3,2,1,2
18009.0,3,4,4,1
18010.0,4,4,4,1
18011.0,4,4,4,3
18013.0,3,4,3,4
18014.0,1,3,4,2
18015.0,1,2,4,4
18016.0,2,2,3,2
18017.0,4,4,1,4
18018.0,3,4,4,2
18019.0,4,4,4,1
18022.0,1,1,4,4
18024.0,3,3,3,3
18027.0,3,4,4,3
18030.0,3,3,3,1
18032.0,4,4,3,4
18033.0,2,4,3,4
18034.0,1,1,4,4
18035.0,1,1,2,3
18036.0,2,4,4,4
18037.0,4,4,4,2
18040.0,4,4,3,2
18041.0,1,1,3,4
18042.0,3,3,4,1
18043.0,2,4,4,2
18044.0,2,2,3,1
18045.0,1,3,4,3
18048.0,4,4,1,4
18050.0,4,4,3,3
18053.0,3,3,1,4
18055.0,1,1,3,1
18056.0,4,4,2,2
18058.0,4,2,1,4
18059.0,3,3,2,4
18061.0,3,2,1,1
18062.0,4,3,2,1
18064.0,4,3,1,3
18065.0,2,2,3,1
18066.0,3,3,2,2
18067.0,1,2,4,3
18068.0,4,4,4,1
18069.0,1,2,4,3
18071.0,4,4,2,2
18072.0,3,4,1,4
18073.0,2,1,1,1
18074.0,4,4,2,1
18075.0,2,2,2,2
18077.0,1,2,3,4
18078.0,3,4,4,2
18079.0,1,1,1,4
18080.0,4,2,1,4
18081.0,3,3,2,1
18082.0,1,1,3,4
18084.0,4,3,1,4
18085.0,4,3,3,3
18086.0,4,4,1,4
18087.0,4,1,1,1
18088.0,2,3,4,4
18092.0,2,1,1,2
18093.0,3,2,1,4
18094.0,2,1,1,4
18095.0,4,3,1,3
18096.0,1,1,4,3
18097.0,2,2,1,2
18099.0,3,4,3,4
18101.0,2,4,4,3
18102.0,1,1,1,1
18104.0,1,1,3,2
18105.0,2,3,4,3
18106.0,3,4,4,1
18108.0,4,4,4,1
18109.0,1,1,3,1
18110.0,1,2,4,3
18112.0,3,3,3,1
18113.0,4,4,1,4
18114.0,3,4,4,1
18116.0,1,2,4,3
18117.0,1,2,3,4
18118.0,1,1,4,3
18119.0,4,4,4,3
18120.0,4,4,4,1
18121.0,3,2,2,4
18122.0,1,1,4,3
18123.0,1,1,1,4
18125.0,1,3,4,3
18126.0,1,3,4,4
18127.0,2,3,4,2
18129.0,4,4,4,2
18130.0,1,1,2,3
18133.0,4,2,1,4
18135.0,3,3,1,3
18136.0,3,3,3,3
18138.0,4,4,4,1
18139.0,1,1,1,4
18142.0,4,2,1,4
18143.0,2,2,3,3
18144.0,3,2,1,1
18145.0,1,1,2,4
18146.0,4,4,1,4
18147.0,4,4,1,4
18149.0,4,3,1,3
18150.0,3,3,3,3
18151.0,3,3,3,2
18154.0,2,2,2,3
18155.0,4,4,2,3
18156.0,2,3,4,2
18158.0,2,2,2,4
18159.0,4,3,3,1
18160.0,3,3,3,2
18161.0,2,2,2,2
18164.0,2,2,3,1
18165.0,4,4,1,4
18167.0,2,1,2,2
18168.0,2,3,4,2
18169.0,3,3,3,2
18170.0,3,2,2,1
18171.0,3,3,3,1
18172.0,1,1,1,2
18173.0,3,2,1,3
18174.0,4,3,1,4
18176.0,4,4,3,3
18177.0,2,2,3,4
18178.0,2,2,2,3
18179.0,2,2,1,3
18180.0,1,1,2,4
18181.0,1,2,4,2
18183.0,3,3,2,2
18184.0,4,4,1,4
18185.0,4,4,2,2
18188.0,2,2,1,3
18189.0,2,2,3,2
18190.0,4,4,3,1
18191.0,4,4,1,1
18192.0,1,1,3,1
18193.0,4,4,3,2
18194.0,4,1,1,4
18196.0,2,3,4,3
18198.0,2,1,1,3
18200.0,2,4,4,4
18202.0,3,2,3,1
18203.0,3,4,4,1
18204.0,1,1,3,3
18205.0,2,2,4,1
18209.0,3,3,3,2
18210.0,1,1,2,2
18211.0,3,3,3,3
18212.0,3,4,4,3
18213.0,4,4,1,4
18215.0,3,3,3,2
18216.0,2,1,3,1
18217.0,2,2,1,4
18218.0,4,3,1,4
18219.0,2,2,3,1
18220.0,4,4,1,4
18221.0,2,2,2,3
18222.0,3,2,1,2
18223.0,1,1,2,2
18224.0,4,4,3,2
18225.0,1,1,2,3
18226.0,1,1,2,4
18227.0,4,4,4,1
18228.0,2,2,3,1
18229.0,2,1,1,1
18230.0,2,1,1,4
18231.0,2,2,3,2
18232.0,3,3,3,2
18233.0,4,4,4,1
18235.0,2,2,1,4
18236.0,3,3,3,2
18237.0,2,2,2,2
18239.0,2,2,3,3
18240.0,4,2,1,1
18241.0,2,1,2,2
18242.0,2,1,2,2
18245.0,1,2,2,3
18246.0,4,3,1,1
18248.0,2,2,2,1
18249.0,3,3,1,4
18250.0,4,4,3,2
18251.0,3,1,1,4
18252.0,1,3,4,2
18255.0,4,4,2,4
18257.0,2,2,3,2
18259.0,3,2,1,2
18260.0,2,2,2,2
18261.0,3,3,3,2
18262.0,4,4,2,4
18263.0,2,2,1,4
18265.0,2,2,3,1
18268.0,4,4,4,1
18269.0,4,4,2,2
18270.0,4,4,3,2
18272.0,1,1,2,3
18273.0,4,4,1,3
18274.0,3,3,3,2
18276.0,3,2,2,3
18277.0,3,4,3,2
18278.0,3,3,3,2
18280.0,4,4,4,1
18281.0,4,4,3,1
18282.0,4,4,3,1
18283.0,1,2,4,4
18287.0,2,1,1,4
